<?xml version="1.0" encoding="UTF-8"?>
<svg width="60px" height="60px" viewBox="0 0 60 60" version="1.1" xmlns="http://www.w3.org/2000/svg" xmlns:xlink="http://www.w3.org/1999/xlink">
    <!-- Generator: Sketch 51.3 (57544) - http://www.bohemiancoding.com/sketch -->
    <title>adk-darbinieks</title>
    <desc>Created with Sketch.</desc>
    <defs></defs>
    <g id="tālāk" stroke="none" stroke-width="1" fill="none" fill-rule="evenodd">
        <g id="ADK-dizains-kotankti" transform="translate(-201.000000, -862.000000)" fill="#655B53" fill-rule="nonzero">
            <g id="Group-7" transform="translate(101.000000, 862.000000)">
                <g id="talrunis">
                    <g id="abio-razotnes-vad" transform="translate(1.000000, 0.000000)">
                        <g id="adk-darbinieks" transform="translate(99.000000, 0.000000)">
                            <path d="M29.9995,0 C13.4314239,0 0,13.4317343 0,29.9997 C0,46.5672657 13.4314239,60 29.9995,60 C46.5675761,60 60,46.5672657 60,29.9997 C60,13.4313343 46.5675761,0 29.9995,0 Z M30.0909015,44.1530415 L30.0909015,44.1526415 L29.9076985,44.1526415 L17.0930849,44.1526415 C17.0930849,34.7813478 25.3236221,34.7835478 27.1500525,32.3331233 L27.359056,31.2157122 C24.7930132,29.9152992 22.981583,26.7800678 22.981583,23.1132311 C22.981583,18.2823828 26.1240354,14.3655437 29.9995,14.3655437 C33.8749646,14.3655437 37.017417,18.2823828 37.017417,23.1132311 C37.017417,26.7488675 35.2381873,29.8644986 32.7063451,31.1855119 L32.9443491,32.4553246 C34.9481825,34.7869479 42.9049151,34.9389494 42.9049151,44.1530415 L30.0909015,44.1530415 Z" id="Shape"></path>
                        </g>
                    </g>
                </g>
            </g>
        </g>
    </g>
</svg>