<?xml version="1.0" encoding="UTF-8"?>
<svg width="126px" height="35px" viewBox="0 0 126 35" version="1.1" xmlns="http://www.w3.org/2000/svg" xmlns:xlink="http://www.w3.org/1999/xlink">
    <!-- Generator: Sketch 51.3 (57544) - http://www.bohemiancoding.com/sketch -->
    <title>FLEX</title>
    <desc>Created with Sketch.</desc>
    <defs></defs>
    <g id="tālāk" stroke="none" stroke-width="1" fill="none" fill-rule="evenodd">
        <g id="ADK-dizains-1" transform="translate(-680.000000, -2410.000000)" fill="#E7E7E7">
            <g id="parstavetie-zimoli" transform="translate(261.000000, 2243.000000)">
                <g id="FLEX" transform="translate(419.000000, 167.000000)">
                    <path d="M108.957356,0 L123.848333,0 L109.8577,16.6116491 L125.796949,34.360327 L109.8577,34.360327 L102.49021,24.2548231 L94.7286936,34.360327 L52.8226906,34.360327 L52.8226906,0 L79.3919155,0 L79.3919155,7.9988738 L65.7267245,7.9988738 L65.7267245,13.3390769 L78.1156998,13.3390769 L78.1156998,21.7044088 L65.7267245,21.7044088 L65.7267245,27.2113672 L79.3919155,27.2113672 L79.3919155,33.6785131 L94.7286936,16.6116491 L80.7373885,0 L95.6283652,0 L102.49021,7.82136012 L108.957356,0 Z M0,0 L26.3621256,0 L26.3621256,7.9988738 L12.9141199,7.9988738 L12.9141199,13.3390769 L25.2049247,13.3390769 L25.2049247,21.7044088 L12.9141199,21.7044088 L12.9141199,34.360327 L0,34.360327 L0,0 Z M27.5583929,0 L40.4725128,0 L40.4725128,26.6290685 L51.6262888,26.6290685 L51.6262888,34.360327 L27.5583929,34.360327 L27.5583929,0 Z" id="Combined-Shape"></path>
                </g>
            </g>
        </g>
    </g>
</svg>