<?xml version="1.0" encoding="UTF-8"?>
<svg width="30px" height="30px" viewBox="0 0 30 30" version="1.1" xmlns="http://www.w3.org/2000/svg" xmlns:xlink="http://www.w3.org/1999/xlink">
    <!-- Generator: Sketch 51.3 (57544) - http://www.bohemiancoding.com/sketch -->
    <title>google-plus</title>
    <desc>Created with Sketch.</desc>
    <defs></defs>
    <g id="tālāk" stroke="none" stroke-width="1" fill="none" fill-rule="evenodd">
        <g id="ADK-dizains-1" transform="translate(-1096.000000, -2912.000000)" fill="#ADA9A6" fill-rule="nonzero">
            <g id="ADK-footer" transform="translate(0.000000, 2572.000000)">
                <g id="footer-top">
                    <g id="5" transform="translate(1052.000000, 302.000000)">
                        <g id="social" transform="translate(0.000000, 38.000000)">
                            <g id="google-plus" transform="translate(44.318182, 0.000000)">
                                <path d="M14.738325,0 C22.8444038,0 29.4766501,6.63224626 29.4766501,14.738325 C29.4766501,22.8444038 22.8444038,29.4766501 14.738325,29.4766501 C6.63224626,29.4766501 0,22.8443026 0,14.738325 C0,6.63234745 6.63224626,0 14.738325,0 Z M22.1995641,12.2511441 L20.5414773,12.2511441 L20.5414773,13.909231 L18.8833904,13.909231 L18.8833904,15.5673179 L20.5414773,15.5673179 L20.5414773,17.2254047 L22.1995641,17.2254047 L22.1995641,15.5673179 L23.8575498,15.5673179 L23.8575498,13.909231 L22.1995641,13.909231 L22.1995641,12.2511441 Z M7.27698474,18.8833904 C9.4877335,21.0941392 13.3565691,21.0941392 15.5672167,18.9756694 C16.3963107,18.1466765 16.856896,16.949175 16.9489726,15.7516734 L16.9489726,14.4620953 L16.856896,14.00151 L11.6064057,14.00151 L11.6064057,15.84375 L14.9224782,15.84375 L14.9224782,16.0280044 C14.8304016,16.5806663 14.4618929,17.1334293 14.0934854,17.5018369 C12.8039072,18.9756694 10.3168275,18.9756694 8.93507161,17.5018369 C7.4612391,16.0280044 7.55331569,13.5409247 8.93507161,12.1591687 C10.132472,10.9616672 11.9748132,10.777514 13.2643913,11.6065068 L13.8170532,11.9749144 L15.2908857,10.5010819 L14.3697151,9.85624222 L13.5407223,9.39565691 C11.4220501,8.56666407 9.02714819,8.93507161 7.36906133,10.5931585 C5.06623599,12.803806 5.06623599,16.6726417 7.27698474,18.8833904 Z" id="Combined-Shape"></path>
                            </g>
                        </g>
                    </g>
                </g>
            </g>
        </g>
    </g>
</svg>