<?xml version="1.0" encoding="UTF-8"?>
<svg width="16px" height="16px" viewBox="0 0 16 16" version="1.1" xmlns="http://www.w3.org/2000/svg" xmlns:xlink="http://www.w3.org/1999/xlink">
    <!-- Generator: Sketch 51.3 (57544) - http://www.bohemiancoding.com/sketch -->
    <title>rekviziti</title>
    <desc>Created with Sketch.</desc>
    <defs></defs>
    <g id="tālāk" stroke="none" stroke-width="1" fill="none" fill-rule="evenodd">
        <g id="ADK-dizains-kotankti-2" transform="translate(-1030.000000, -354.000000)" fill="#FFFFFF" fill-rule="nonzero">
            <g id="darbalaiks" transform="translate(735.000000, 273.000000)">
                <g id="darba-laiks" transform="translate(283.000000, 69.000000)">
                    <g id="time_icon">
                        <g id="rekviziti" transform="translate(12.000000, 12.000000)">
                            <path d="M15.2728821,14.3157895 L0.727458493,14.3157895 C0.325585355,14.3157895 0,14.6926868 0,15.158289 C0,15.6231027 0.325585355,16 0.727458493,16 L15.2725415,16 C15.6744146,16 16,15.6231027 16,15.158289 C15.9996594,14.6926868 15.6740741,14.3157895 15.2728821,14.3157895 Z" id="Shape"></path>
                            <path d="M1.58433476,12.069573 C1.17430161,12.069573 0.842105263,12.3837154 0.842105263,12.7714643 C0.842105263,13.1592132 1.17430161,13.4736842 1.58433476,13.4736842 L14.569876,13.4736842 C14.9799092,13.4736842 15.3121055,13.1592132 15.3121055,12.7714643 C15.3121055,12.3837154 14.9799092,12.069573 14.569876,12.069573 L14.3846661,12.069573 L14.3846661,5.75386568 L14.569876,5.75386568 C14.7752401,5.75386568 14.9406433,5.5967945 14.9406433,5.40324863 C14.9406433,5.20970276 14.7745451,5.05263158 14.569876,5.05263158 L1.58433476,5.05263158 C1.37931818,5.05263158 1.2135675,5.20970276 1.2135675,5.40324863 C1.2135675,5.5967945 1.37966567,5.75386568 1.58433476,5.75386568 L1.76989213,5.75386568 L1.76989213,12.0692444 L1.58433476,12.0692444 L1.58433476,12.069573 Z M12.9002072,5.75386568 L12.9002072,12.0692444 L10.6742137,12.0692444 L10.6742137,5.75386568 L12.9002072,5.75386568 Z M9.18975467,5.75386568 L9.18975467,12.0692444 L6.96376116,12.0692444 L6.96376116,5.75386568 L9.18975467,5.75386568 Z M3.25365615,5.75386568 L5.47964965,5.75386568 L5.47964965,12.0692444 L3.25365615,12.0692444 L3.25365615,5.75386568 Z" id="Shape"></path>
                            <path d="M0.727146647,5.05263158 L15.2657184,5.05263158 C15.2681013,5.05263158 15.2708247,5.05263158 15.2728672,5.05263158 C15.6749008,5.05263158 16,4.70461358 16,4.27505162 C16,3.93358626 15.7943875,3.64417799 15.5087768,3.53933575 L8.29531952,0.0682566678 C8.10570669,-0.0227522226 7.88886043,-0.0227522226 7.69890719,0.0682566678 L0.428940483,3.56627438 C0.116096346,3.7169851 -0.0558147419,4.08029259 0.016353873,4.43850359 C0.08818207,4.79671458 0.384345726,5.05263158 0.727146647,5.05263158 Z" id="Shape"></path>
                        </g>
                    </g>
                </g>
            </g>
        </g>
    </g>
</svg>