﻿nosaukums;apraksts;razotajs;grupa;bilde;nosaukums_ru;apraksts_ru;grupa_ru;nosaukums_en;apraksts_en;grupa_en
"3M 1120 Ausu aizbāžņi, oranži, SNR 34dB";"<span style=""font-family: Arial; font-size: 12.727272033691406px; line-height: 16px;"">Vienreizlietojamie, sarulējamie poliuretāna (PU) ausu aizbāžņi ir izgatavoti no lēnas izple&scaron;anās, formu atjaunojo&scaron;a PU, kas, ievietojot tos ausīs, nodro&scaron;ina teicamu pielāgo&scaron;anos auss kanāla formai un cie&scaron;u piekļau&scaron;anos maksimālai skaņas izolācijai. 3M 1120 ausu aizbāžņiem ir </span>viļņveidīga forma, izstrādāta īsiem&nbsp;vai &scaron;auriem ausu kanāliem.&nbsp;<br />
SNR 34 dB<br />
<span style=""font-family: Arial; font-size: 12.727272033691406px; line-height: 16px;"">Kastē norādīts pāru skaits.</span>";3M;Individuālie darba aizsardzības līdzekļi;1202740241---502.jpg;"3M 1120 Противошумные вкладыши, оранжевый, SNR 34dB";"<font face=""Verdana, Geneva, Tahoma, sans-serif""><span style=""line-height: 18px;"">Благодаря уникальной форме этих берушей, они подходят для людей с различными типами слухового канала, в том числе для коротких или узких слуховых каналов. Мягкий гипоаллергенный пористый материал обеспечивает малое равновесное давление и максимальный комфорт для уха.</span></font><br />
<font face=""Verdana, Geneva, Tahoma, sans-serif""><span style=""line-height: 18px;"">В ящике означает число пар.</span></font>";Средства индивидуальной защиты;"3M 1120 Soft ear plugs, orange, SNR 34dB";"<span style=""font-size: small;""><span style=""font-family: Verdana, Geneva, Tahoma, sans-serif; line-height: 18px;"">A unique articulated shape for optimum fit, particularly useful for short or narrow ear canals. The soft hypoallergenic PU foam material provides maximum comfort and low pressure inside the ear.<br />
The box indicates the number of pairs.</span></span>";Personal Safety
"3M 1130 Ausu aizbāžņi ar aukliņu, oranži, SNR 34dB ";"<span style=""margin: 0px; padding: 0px; font-family: Arial; font-size: 12.727272033691406px; line-height: 16px;"">Vienreizlietojamie, sarulējamie poliuretāna (PU) ausu aizbāžņi ir izgatavoti no lēnas izple&scaron;anās, formu atjaunojo&scaron;a PU, kas, ievietojot tos ausīs, nodro&scaron;ina teicamu pielāgo&scaron;anos auss kanāla formai un cie&scaron;u piekļau&scaron;anos maksimālai skaņas izolācijai. 3M 1120 ausu aizbāžņiem ir&nbsp;</span><span style=""font-family: Arial; font-size: 12.727272033691406px; line-height: 16px;"">viļņveidīga forma, izstrādāta īsiem&nbsp;vai &scaron;auriem ausu kanāliem.&nbsp;</span>Mīksta pītā aukliņa palīdz izņemt aizbāžņus pēc to lieto&scaron;anas&nbsp;un novēr&scaron; to pazu&scaron;anu.<br />
SNR 34 dB<br />
Kastē norādīts pāru skaits.<br type=""_moz"" />";3M;Individuālie darba aizsardzības līdzekļi;1202740366------603.jpg;"3M 1130 Противошумные вкладыши, оранжевый, SNR 34dB";"<font face=""Verdana, Geneva, Tahoma, sans-serif""><span style=""line-height: 18px;"">Беруши 3M&trade; 1130 обладают уникальной формой, благодаря которой идеально подходят для людей с различными слуховыми каналами, в том числе для людей с короткими или узкими слуховыми каналами.</span></font><br />
<font face=""Verdana, Geneva, Tahoma, sans-serif""><span style=""line-height: 18px;"">В ящике означает число пар.</span></font>";Средства индивидуальной защиты;"3M 1130 Soft corded ear plugs, orange, SNR 34dB";"<span style=""font-size: small;""><span style=""font-family: Verdana, Geneva, Tahoma, sans-serif; line-height: 18px;"">The 3M 1130 Ear Plug provides a unique articulated shape for optimum fit, particularly useful for short or narrow ear canals.<br />
The box indicates number of pairs.</span></span>";Personal Safety
"3M 1310 Ausu aizbāžņi ar stīpu, SNR 26dB ";"3M 1310 ausu aizbāžņi ar stīpu ir piemērots risinājums, ja dzirdes aizsarglīdzekli vienas darba dienas ietvaros nepiecie&scaron;ams bieži uzvilkt un noņemt. Ausu aizbāžņi sastiprināti ar &nbsp;īpa&scaron;i elastīgu galvas stīpu &nbsp;ir viegli uzvelkami un atrodoties ārpus trok&scaron;ņainās vides tos var turēt ap kaklu. Ausu uzgaļi ir daudzreizlietojami, vienkār&scaron;i nomaināmi, mazgājami, ja nepiecie&scaron;ams nopērkami atsevi&scaron;ķi. <br />
SNR 26 dB&nbsp;<br />
<br type=""_moz"" />";3M;Individuālie darba aizsardzības līdzekļi;1202740440------106.jpg;"3M 1310 Противошумные вкладыши, SNR 26dB";"<span style=""font-family: Verdana, Geneva, Tahoma, sans-serif; line-height: 18px;"">Дужка из гибкого материала и круглые мягкие ушные вкладыши обеспечивают комфорт использования и надежную защиту. Не требуют ввода в ушной канал, гигиеничны. Многоразовые.</span>";Средства индивидуальной защиты;"3M 1310 Ear plugs with a flexible band, SNR 26dB";"<span style=""font-size: small;""><span style=""font-family: Verdana, Geneva, Tahoma, sans-serif; line-height: 18px;"">The unique flexible band allows for easy manipulation together with the soft round shape foam ear plugs provide reduced pressure and a comfortable seal. The 3M 1310 Ear Plug is lightweight with 13g and has easy to replace foam plug tips (3M 1311). Designed to fit behind the head or under the chin with minimal contact with clothing.</span></span>";Personal Safety
3M 1311 Nomaināmie uzgaļi 1310 ausu aizbāznim ar stīpu ;"<span style=""font-family: Arial; font-size: 12.727272033691406px; line-height: 16px;"">Ausu uzgaļi ir daudzreizlietojami, vienkār&scaron;i nomaināmi, mazgājami.<br />
</span>Kastē norādīts pāru skaits.&nbsp;";3M;Individuālie darba aizsardzības līdzekļi;1202740623---5051.jpg;3M 1311 Cменные вкладыши для 1310 вкладыши;"<span style=""font-family: Verdana, Geneva, Tahoma, sans-serif; line-height: 18px;"">Дужка из гибкого материала и круглые мягкие ушные вкладыши обеспечивают комфорт использования и надежную защиту. Не требуют ввода в ушной канал, гигиеничны. Многоразовые.</span>";Средства индивидуальной защиты;3M 1311 Replacement pods for 1310 ear plugs;"<span style=""font-size: small;""><span style=""font-family: Verdana, Geneva, Tahoma, sans-serif; line-height: 18px;"">Replacement pods to be used with the flexible 3M 1310 Banded Ear Plugs. Made from slow recovery foam and no roll down required.</span></span>";Personal Safety
"3M Peltor Optime I Austiņas, SNR 27dB";"3M Peltor Optime I austiņas &nbsp;ir kombinējamas ar citiem aizsarglīdzekļiem. Platie blīvgredzeni ir pildīti ar unikālu &scaron;kidruma un putu pildījumu, kas&nbsp;vienlaicīgi nodro&scaron;ina optimālu noslēg&scaron;anu un zemu saskarsmes&nbsp;spiedienu. Piemērotas vidēm, kurās ir mērens&nbsp;rūpniecisks troksnis (darbnīcās, plāk&scaron;ņu metālu un&nbsp;drukas darbiem) un ir piemērotas arī darbiem ārpus telpām,&nbsp;piemēram, zāliena pļau&scaron;anai.";3M;Individuālie darba aizsardzības līdzekļi;1202741269---4279.jpg;"Peltor OPTIME I Наушники, SNR 27dB";"<span style=""font-family:verdana,geneva,tahoma,sans-serif"">Наушники Optime I обеспечивают очень разностороннюю защиту и отличаются легкостью Наушники имеют низкий профиль и при этом значительную глубину полости чашки. Это упрощает их совместное применение с другим средствами индивидуальной защиты и создает ощущение комфорта в околоушной области.</span>";Средства индивидуальной защиты;"Peltor Optime I Earmuff, SNR 27dB";"<span style=""font-family:verdana,geneva,tahoma,sans-serif"">The 3M Peltor Optime I offers versatile protection and is very lightweight providing high wearer comfort. It combines a low profile with generous inner depth which makes it easy to combine with other equipment and allows the ear to rest comfortably.</span>";Personal Safety
"3M 2742 Aizsargbrilles ar mīkstām, regulējamām kājiņām, dzeltenas (UV, AS, AF) ";"3M 2742 aizsarbrillēm ir &nbsp;regulējamās kājiņu eņģes, tādejādi &nbsp;var regulēt&nbsp;lēcas leņķi.&nbsp;Regulējams kājiņu garums nodro&scaron;ina aizsargbriļļu&nbsp;pielāgo&scaron;anu individuālām vajadzībām.&nbsp;Mīkstie kājiņu uzgaļi samazina spiedienu.&nbsp;<span style=""font-family: Arial; font-size: 12.727272033691406px; line-height: 16px;"">Dzeltena, triecienizturīga polikarbonāta (PC) lēca pārklāta ar pretskrāpējuma (AS) un pretaizsvī&scaron;anas (AF) pārklājumu.&nbsp;Filtrs - (UV-Zilā gaisma) &nbsp;kontrastu pastiprinā&scaron;anai.</span><br />
<br />
<br />";3M;Individuālie darba aizsardzības līdzekļi;1202749217---137.jpg;"";<br />;Средства индивидуальной защиты;"";<br />;Personal Safety
3M 4277 Pusmaska ar ABE1P3 filtriem ;"<span style=""font-family: Arial; font-size: 12.727272033691406px; line-height: 15.994318008422852px;"">3M 4000.sērijas integrētās konstrukcijas respiratori ir lieto&scaron;anai gatavas bezapkopes pusmaskas, kas izstrādātas efektīvai aizsardzībai pret dažādām rūpniecībā sastopamām bīstamām gāzu, tvaiku un daļiņu kombinācijām. Filtrē&scaron;anas tehnoloģija &nbsp;ar zemu elpo&scaron;anas pretestības līmeni ļāvusi izveidot pusmaskas dizainu, kas nesa&scaron;aurina pusmaskas lietotājam redzes leņķi.<br />
</span>FFABE1P3 organisko tvaiku/neorganisko tvaiku+skābju gāzes/daļiņu respirators.";3M;Individuālie darba aizsardzības līdzekļi;1202410582---UPF 3 - R.jpg;"3M 4277 Oрганические, неорг., кислых газов + частицы";"EN405:2002 FFABE1P3 Oрганические, неорг., кислых газов + частицы";Средства индивидуальной защиты;"3M 4277 Organic, inorg., acid gases + particles";"EN405:2002 FFABE1P3 Organic, inorg., acid gases + particles";Personal Safety
3M 9925 Metināšanas respirators ;"3M metinā&scaron;anas respiratori &nbsp;ir īpa&scaron;i izstrādāti pielietojumam metinā&scaron;anā, lai nodro&scaron;inātu aizsardzību pret ozonu un metinā&scaron;anas izgarojumiem.<br />
Respirators nodro&scaron;ina aizsardzību pret putekļiem, miglu un metāla izgarojumiem. Izliegtā forma nodro&scaron;ina komfortu valkātājam, izelpas vārsts samazina mitruma veido&scaron;anos, regulējamās saites un deguna klipsis nodro&scaron;ina komfortablu piekļau&scaron;anos sejai.<br />
FFP2 daļiņu respirators ar vārstu.";3M;Individuālie darba aizsardzības līdzekļi;1202315592---Fladderi2.jpg;3M 9925 Противоаэрозольный респиратор;"<font face=""Verdana, Geneva, Tahoma, sans-serif""><span style=""line-height: 18px;"">Респираторы для защиты от сварочного дыма серии 3M 9925 обеспечивают легкую, эффективную, комфортную и гигиеничную защиту органов дыхания от пыли, аэрозоля и частиц металла, а также имеют долгий срок эксплуатации.</span></font><br />
<font face=""Verdana, Geneva, Tahoma, sans-serif""><span style=""line-height: 18px;"">Уровень защиты - FFP2.</span></font><br />";Средства индивидуальной защиты;3M 9925 Valved Welding Fume Respirator;"<span style=""font-family: Verdana, Geneva, Tahoma, sans-serif; line-height: 18px;"">Provides respiratory protection against fine dusts, mists, metal fume and Ozone.<br />
</span><span style=""font-family: Verdana, Geneva, Tahoma, sans-serif; line-height: 20px;"">Standard: EN149:2001 FFP2.</span>";Personal Safety
3M 9928 Metināšanas respirators;"<span style=""font-family: Arial; font-size: 12.727272033691406px; line-height: 15.994318008422852px;"">3M metinā&scaron;anas respiratori &nbsp;ir īpa&scaron;i izstrādāti pielietojumam metinā&scaron;anā, lai nodro&scaron;inātu aizsardzību pret ozonu un metinā&scaron;anas izgarojumiem.</span><br style=""margin: 0px; padding: 0px; font-family: Arial; font-size: 12.727272033691406px; line-height: 15.994318008422852px;"" />
<span style=""font-family: Arial; font-size: 12.727272033691406px; line-height: 15.994318008422852px;"">Respirators nodro&scaron;ina aizsardzību pret putekļiem, miglu un metāla izgarojumiem. Izliegtā forma nodro&scaron;ina komfortu valkātājam, izelpas vārsts samazina mitruma veido&scaron;anos, regulējamās saites un deguna klipsis nodro&scaron;ina komfortablu piekļau&scaron;anos sejai. Mīksts iek&scaron;ējais sejas blīvējums.</span><br style=""margin: 0px; padding: 0px; font-family: Arial; font-size: 12.727272033691406px; line-height: 15.994318008422852px;"" />
<span style=""font-family: Arial; font-size: 12.727272033691406px; line-height: 15.994318008422852px;"">FFP2 daļiņu respirators ar vārstu.<br />
</span><br />";3M;Individuālie darba aizsardzības līdzekļi;1202315729---Abrazīvās zvaigznes.jpg;3M 9928 Противоаэрозольный респиратор;"<font face=""Verdana, Geneva, Tahoma, sans-serif""><span style=""line-height: 18px;"">Респираторы для защиты от сварочного дыма серии 3M 9928 обеспечивают легкую, эффективную, комфортную и гигиеничную защиту органов дыхания от пыли, аэрозоля и частиц металла, а также имеют долгий срок эксплуатации.</span></font><br />
<font face=""Verdana, Geneva, Tahoma, sans-serif""><span style=""line-height: 18px;"">Уровень защиты - FFP2.</span></font>";Средства индивидуальной защиты;9928 Valved Premium Welding Fume Respirator;"<span style=""font-family: Verdana, Geneva, Tahoma, sans-serif; line-height: 18px;"">Provides respiratory protection against fine dusts, mists, metal fume and Ozone. A more premium product to the Classic 9925 due to its additional soft sealing face ring.<br />
</span><span style=""font-family: Verdana, Geneva, Tahoma, sans-serif; line-height: 20px;"">Standard: EN149:2001 FFP2.</span>";Personal Safety
3M 9913 Speciālizētais daļiņu respirators;"3M specializētais &nbsp;bezapkopes &nbsp;daļiņu &nbsp;respirators.<br />
Respiratorā ir iestrādāts aktivētas ogles slānis. Respiratorus var izmantot ļoti pla&scaron;am darbību spektram, sākot no metinā&scaron;anas līdz atkritumu &scaron;ķiro&scaron;anai. Nodro&scaron;ina aizsardzību pret putekļiem, miglu &nbsp;un mazos daudzumos eso&scaron;iem organiskiem tvaikiem vai pret skābi veidojo&scaron;ām gāzēm.<br />
FFP1 Daļinu respirators.";3M;Individuālie darba aizsardzības līdzekļi;1202315466---Fladderi.jpg;3M 9913 Противоаэрозольный респиратор;"Респиратор 3M 9913 обеспечивает защиту в пределах ПДК от органических паров, а также от жидких и твердых чатиц.<br />
Уровень защиты - FFP1.";Средства индивидуальной защиты;3M 9913 Unvalved Speciality Nuisance Odour Respirator;"<span style=""background-color:transparent; font-family:verdana,geneva,tahoma,sans-serif; font-size:1em"">Provides relief from nuisance levels of organic vapours and respiratory protection against low levels of fine dusts and mists.&nbsp;FFP1.</span><br />
&nbsp;";Personal Safety
"3M 6000.sērijas  pusmaska M, L izmērs";"3M 6000.sērijas pusmaskas kopā ar 3M daļiņu vai gāzu/tvaiku filtriem nodro&scaron;ina to lietotājiem maksimālu aizsardzības un optimālu komforta līmeni. Pusmasku mazais svars padara tās īpa&scaron;i piemērotas ilgsto&scaron;ai valkā&scaron;anai.&nbsp;<span style=""font-family:arial; font-size:12.727272033691406px"">Pusmaskām ir ķīļveida stiprinājuma mehānisms, kas ļauj viegli pievienot pla&scaron;u klāstu dubulto filtru vienlaicīgai elpceļu aizsardzībai no veselībai bīstamām daļiņām un gāzēm/tvaikiem. Pusmaskas var izmantot arī kopā ar 3M saspiesta gaisa padeves sistēmām.</span>";3M;Individuālie darba aizsardzības līdzekļi;1202398240---8835 S M.jpg;"6000 Полумаска M,L размеры";"<span style=""font-size:small""><span style=""font-family:verdana,geneva,tahoma,sans-serif"">Легкие маски серии 6000 не ограничивают обзор, не требуют особого ухода, отличаются предельной простотой и удобством. Cерия респираторов 3M 6000 имеет следующие особенности:&nbsp;</span><br />
<span style=""font-family:verdana,geneva,tahoma,sans-serif"">- Конструкция с 2 фильтрами&nbsp;</span><br />
<span style=""font-family:verdana,geneva,tahoma,sans-serif"">- Байонетное крепление фильтров &ndash; надежное крепление одним щелчком&nbsp;</span><br />
<span style=""font-family:verdana,geneva,tahoma,sans-serif"">- Большой выбор фильтров для разных производственных условий&nbsp;</span><br />
<span style=""font-family:verdana,geneva,tahoma,sans-serif"">- Облегченная конструкция: вес 450 г&nbsp;</span><br />
<span style=""font-family:verdana,geneva,tahoma,sans-serif"">- 3 типоразмера &ndash; подходит к любой форме лица&nbsp;</span><br />
<span style=""font-family:verdana,geneva,tahoma,sans-serif"">- Обеспечивает широкий угол обзора для пользователя&nbsp;</span><br />
<span style=""font-family:verdana,geneva,tahoma,sans-serif"">- Ударопрочная, стойкая к задирам и царапинам поликарбонатная линза&nbsp;</span><br />
<span style=""font-family:verdana,geneva,tahoma,sans-serif"">- Мягкая гипоаллергенная лицевая часть из эластомера&nbsp;</span><br />
<span style=""font-family:verdana,geneva,tahoma,sans-serif"">- Не затрудняет речь.</span></span>";Средства индивидуальной защиты;"6000 Half mask M,L sizes";"<span style=""font-size:small""><span style=""font-family:verdana,geneva,tahoma,sans-serif"">Reusable half masks designed for simplicity.</span><br />
<span style=""font-family:verdana,geneva,tahoma,sans-serif"">- Available in 3 sizes</span><br />
<span style=""font-family:verdana,geneva,tahoma,sans-serif"">- Lightweight, (elastomeric) face piece</span><br />
<span style=""font-family:verdana,geneva,tahoma,sans-serif"">- Unique 3M Bayonet filter fixing system</span><br />
<span style=""font-family:verdana,geneva,tahoma,sans-serif"">- Cradle head harness and easy fasten neck strap</span><br />
<span style=""font-family:verdana,geneva,tahoma,sans-serif"">- Few replaceable parts for easy maintenance</span><br />
<span style=""font-family:verdana,geneva,tahoma,sans-serif"">- Utilises all of the 3M&trade; 2000, 5000 and 6000 Series Filters</span><br />
<span style=""font-family:verdana,geneva,tahoma,sans-serif"">- Twin filter design for even distribution of weight and minimal obstruction to field of vision.</span></span>";Personal Safety
3M 6895 Filtra fiksators 6000.sērijas pusmaskai un pilnas sejas maskai;Filtra fiksators 6000.sērijas pusmaskai un pilnas sejas maskai.;3M;Individuālie darba aizsardzības līdzekļi;1202410075---USC 9 - R.jpg;3M 6895 Противоаэрозольный фильтр платформ;"Противоаэрозольный&nbsp;фильтр платформ для 6000 полумаски и полные маски";Средства индивидуальной защиты;3M 6895 Particulate filter platform ;Particulate filter platform for 6000.series half masks and full face masks;Personal Safety
"3M 7500.sērijas pusmaska M, L izmērs";"Daudzreiz lietojamās 3M 7500.sērijas pusmaskas izstrādātas, lai nodro&scaron;inātu maksimālu aizsardzības līmeni, vienlaicīgi apmierinot visaugstākās komforta prasības: samazināta elpo&scaron;anas pretestība un karstuma uzkrā&scaron;anās maskas korpusa iek&scaron;pusē, ērti galvas un kakla siksnu stiprinājumi, līdzsvarota maskas korpusa piekļau&scaron;anās, novērsta vārsta vibrācija. Pusmaskām ir ķīļveida stiprinājuma mehānisms, kas ļauj viegli pievienot dubultos filtrus.&nbsp;<span style=""font-family:arial; font-size:12.727272033691406px"">Pusmaskas var izmantot arī kopā ar 3M saspiesta gaisa padeves sistēmām.</span>";3M;Individuālie darba aizsardzības līdzekļi;1202317233---8710.JPG;"3M 7500 Полумаска  M, L размеры";"<span style=""font-family:verdana,geneva,tahoma,sans-serif"">Маска имеет байонетное крепление 3M&trade;, позволяющее присоединять широкий диапазон парных легких фильтров, защищающих от газов, паров и пылевых частиц, в зависимости от вредностей, присутствующих в производственной среде. Возможность присоединения системы принудительной подачи воздуха. Выпускается в 3-х размерах: S,M,L. Силиконовая лицевая часть поддерживает температуру лица. Система Drop-Down позволяет снять полумаску, не снимая другие СИЗ - каску, очки, лицевой щиток. Сменные части позволяют дольше поддерживать полумаску в рабочем состоянии. Все эти характеристики обеспечивают повышенный комфорт пользователя. Хорошо комплектуется с закрытыми очками 3M 2890 и различными открытыми очками.</span>";Средства индивидуальной защиты;"3M 7500 Half mask M, L sizes";"<span style=""font-family:verdana,geneva,tahoma,sans-serif"">Reusable half masks that combine unrivalled levels of wearer comfort with fully replaceable parts for maximum durability and quality.</span>";Personal Safety
3M Aura 9310+ Daļļiņu respirators ;"<span style=""font-size:small""><span style=""font-family:tahoma"">3M 9300. sērija - Comfort Plus, bezapkopes daļiņu&nbsp;respiratori.<br />
FFP1 Daļiņu respirators bez vārsta, salokāms.</span></span>";3M;Individuālie darba aizsardzības līdzekļi;1202310629---Kombinētie nobeiguma apstrādes cilindri KNC2.jpg;3M Aura 9310+ Противоаэрозольный респиратор;"<span style=""font-family:verdana,geneva,tahoma,sans-serif"">Благодаря новой разработке фильтра со сниженным сопротивлением дыханию компании 3М дышать через респиратор стало еще легче. Рельефная верхняя панель респиратора 9310 эффективно отводит образующееся тепло и влагу, снижая запотевание защитных очков. Применяется в основных отраслях промышленности, где требуется защита степени FFP1.</span>";Средства индивидуальной защиты;"3M Aura™ 9310+ Particulate Respirator, FFP1, Unvalved, ";"<span style=""font-family:verdana,geneva,tahoma,sans-serif"">Provides respiratory protection against low levels of fine dusts and mists.</span><br />
<span style=""font-family:verdana,geneva,tahoma,sans-serif"">Standard: EN149:2001 FFP1 NR D</span>";Personal Safety
3M 9913 Speciālizētais daļiņu respirators;"3M specializētais &nbsp;bezapkopes &nbsp;daļiņu &nbsp;respirators.<br />
Respiratorā ir iestrādāts aktivētas ogles slānis. Respiratorus var izmantot ļoti pla&scaron;am darbību spektram, sākot no metinā&scaron;anas līdz atkritumu &scaron;ķiro&scaron;anai. Nodro&scaron;ina aizsardzību pret putekļiem, miglu &nbsp;un mazos daudzumos eso&scaron;iem organiskiem tvaikiem vai pret skābi veidojo&scaron;ām gāzēm.<br />
FFP1 Daļinu respirators.";3M;Individuālie darba aizsardzības līdzekļi;1202315466---Fladderi.jpg;3M 9913 Противоаэрозольный респиратор;"Респиратор 3M 9913 обеспечивает защиту в пределах ПДК от органических паров, а также от жидких и твердых чатиц.<br />
Уровень защиты - FFP1.";Средства индивидуальной защиты;3M 9913 Unvalved Speciality Nuisance Odour Respirator;"<span style=""background-color:transparent; font-family:verdana,geneva,tahoma,sans-serif; font-size:1em"">Provides relief from nuisance levels of organic vapours and respiratory protection against low levels of fine dusts and mists.&nbsp;FFP1.</span><br />
&nbsp;";Personal Safety
3M 9925 Metināšanas respirators ;"3M metinā&scaron;anas respiratori &nbsp;ir īpa&scaron;i izstrādāti pielietojumam metinā&scaron;anā, lai nodro&scaron;inātu aizsardzību pret ozonu un metinā&scaron;anas izgarojumiem.<br />
Respirators nodro&scaron;ina aizsardzību pret putekļiem, miglu un metāla izgarojumiem. Izliegtā forma nodro&scaron;ina komfortu valkātājam, izelpas vārsts samazina mitruma veido&scaron;anos, regulējamās saites un deguna klipsis nodro&scaron;ina komfortablu piekļau&scaron;anos sejai.<br />
FFP2 daļiņu respirators ar vārstu.";3M;Individuālie darba aizsardzības līdzekļi;1202315592---Fladderi2.jpg;3M 9925 Противоаэрозольный респиратор;"<font face=""Verdana, Geneva, Tahoma, sans-serif""><span style=""line-height: 18px;"">Респираторы для защиты от сварочного дыма серии 3M 9925 обеспечивают легкую, эффективную, комфортную и гигиеничную защиту органов дыхания от пыли, аэрозоля и частиц металла, а также имеют долгий срок эксплуатации.</span></font><br />
<font face=""Verdana, Geneva, Tahoma, sans-serif""><span style=""line-height: 18px;"">Уровень защиты - FFP2.</span></font><br />";Средства индивидуальной защиты;3M 9925 Valved Welding Fume Respirator;"<span style=""font-family: Verdana, Geneva, Tahoma, sans-serif; line-height: 18px;"">Provides respiratory protection against fine dusts, mists, metal fume and Ozone.<br />
</span><span style=""font-family: Verdana, Geneva, Tahoma, sans-serif; line-height: 20px;"">Standard: EN149:2001 FFP2.</span>";Personal Safety
3M 9928 Metināšanas respirators;"<span style=""font-family: Arial; font-size: 12.727272033691406px; line-height: 15.994318008422852px;"">3M metinā&scaron;anas respiratori &nbsp;ir īpa&scaron;i izstrādāti pielietojumam metinā&scaron;anā, lai nodro&scaron;inātu aizsardzību pret ozonu un metinā&scaron;anas izgarojumiem.</span><br style=""margin: 0px; padding: 0px; font-family: Arial; font-size: 12.727272033691406px; line-height: 15.994318008422852px;"" />
<span style=""font-family: Arial; font-size: 12.727272033691406px; line-height: 15.994318008422852px;"">Respirators nodro&scaron;ina aizsardzību pret putekļiem, miglu un metāla izgarojumiem. Izliegtā forma nodro&scaron;ina komfortu valkātājam, izelpas vārsts samazina mitruma veido&scaron;anos, regulējamās saites un deguna klipsis nodro&scaron;ina komfortablu piekļau&scaron;anos sejai. Mīksts iek&scaron;ējais sejas blīvējums.</span><br style=""margin: 0px; padding: 0px; font-family: Arial; font-size: 12.727272033691406px; line-height: 15.994318008422852px;"" />
<span style=""font-family: Arial; font-size: 12.727272033691406px; line-height: 15.994318008422852px;"">FFP2 daļiņu respirators ar vārstu.<br />
</span><br />";3M;Individuālie darba aizsardzības līdzekļi;1202315729---Abrazīvās zvaigznes.jpg;3M 9928 Противоаэрозольный респиратор;"<font face=""Verdana, Geneva, Tahoma, sans-serif""><span style=""line-height: 18px;"">Респираторы для защиты от сварочного дыма серии 3M 9928 обеспечивают легкую, эффективную, комфортную и гигиеничную защиту органов дыхания от пыли, аэрозоля и частиц металла, а также имеют долгий срок эксплуатации.</span></font><br />
<font face=""Verdana, Geneva, Tahoma, sans-serif""><span style=""line-height: 18px;"">Уровень защиты - FFP2.</span></font>";Средства индивидуальной защиты;9928 Valved Premium Welding Fume Respirator;"<span style=""font-family: Verdana, Geneva, Tahoma, sans-serif; line-height: 18px;"">Provides respiratory protection against fine dusts, mists, metal fume and Ozone. A more premium product to the Classic 9925 due to its additional soft sealing face ring.<br />
</span><span style=""font-family: Verdana, Geneva, Tahoma, sans-serif; line-height: 20px;"">Standard: EN149:2001 FFP2.</span>";Personal Safety
3M Scotch Brite WR-RL nobeiguma apstrādes materiāls;"&nbsp;";3M;Abrazīvie materiāli;1202308064---Scotch Brite nobeiguma apstrādes diski.jpg;"";"&nbsp;";Абразивные материалы;"";"&nbsp;";Abrasives
Abrazīvā auduma lente no 3M Trizact 237AA materiāla;"<span style=""font-family: Arial; font-size: 12.727272033691406px; line-height: 16px;"">Mēs piedāvājam izgatavot pēc pasūtītāja vajadzībām un izmēriem abrazīvās lentes.</span><br style=""margin: 0px; padding: 0px; font-family: Arial; font-size: 12.727272033691406px; line-height: 16px;"" />
<span style=""font-family: Arial; font-size: 12.727272033691406px; line-height: 16px;"">Trizact abrazīvā lente ar vairākslāņu audumu ir piemērota nobeiguma apstrādei pēc rupjās slīpē&scaron;anas.</span>";ADK;Abrazīvie materiāli;1181567212---gaisma tuneļa galā.jpg;"";"&nbsp;";Абразивные материалы;"";"&nbsp;";Abrasives
Abrazīvā auduma lente no 3M Cubitron 777F materiāla;"Mēs piedāvājam izgatavot pēc pasūtītāja vajadzībām un izmēriem abrazīvās lentes.<br />
Ilglietojama un noturīga Cubitron abrazīvo graudu lenta piemērota īpa&scaron;i nerūsējo&scaron;am tēraudam. Paredzēta slāņa noņem&scaron;anai.";ADK;Abrazīvie materiāli;1181567212---dieviņš skatās uz čausi.jpg;Шлифовальные ленты 3M 777F;"Шлифовальные ленты 3M&trade; 777F на основе из влагостойкого полиэфирного полотна могут&nbsp;использоваться как для сухой, так и для влажной шлифовки. Охлаждающие присадки позволяют обрабатывать чувствительные к нагреву металлы: нержавеющую сталь, высоколегированную сталь, никель, кобальт и другие.";Абразивные материалы;Cloth Belts 3M 777F;3M Cloth Belts 777F;Abrasives
3M SJ5009 Bumpons;"3M SJ5009 Bumponi, melni, R30 naturālā kaučuka līmslānis, cietība Shore-M 72, iepakoti blistera iepakojumos. Vienā blistera iepakojumā 12 gabali. Minimālais pasūtījums 18 blistera iepakojumi (216gab.)";3M;Līmes un līmlentes;1204718291---2840-B copy.gif;"";"";Ленты и клеи;"";"";Tapes & Adhesives
3M SJ5023 Bumpons;"3M SJ5023 Bumponi. Balti, pelēki, melni R30 naturālā kaučuka līmslānis, cietība Shore-M 72, 1000gab/iepak.";3M;Līmes un līmlentes;1204718388---2842W copy.gif;"";"";Ленты и клеи;"";"";Tapes & Adhesives
3M SJ5302 Bumpons;"3M SJ5302 Bumpons, caurspīdīgi, R25sistētiskā kaučuka līmslānis, cietība Shore-M 75, iepakoti blisteru iepakojumos. Vienā blistera iepakojumā 72 gabali. Mininālais pasūtījums 18 blistera iepakojumi (1296 gab).";3M;Līmes un līmlentes;1204718496---2845-B copy.gif;"";"";Ленты и клеи;"";"";Tapes & Adhesives
3M SJ5308 Bumpons;"3M SJ5308 Bumpons, caurspīdīgs, A20 akrila līmslānis, cietība Shore-M 75, iepakoti blistera iepakojumā. Vienā blistera iepakojumā 80 gabali. Minimālais pasūtījums 18 blistera iepakojumi (1440 gab).";3M;Līmes un līmlentes;1204719233---2845-B copy.gif;"";"";Ленты и клеи;"";"";Tapes & Adhesives
3M SJ5323 Bumpons;"<span style=""background-color:rgb(255, 255, 255); font-family:arial; font-size:13px"">3M SJ5323 Bumpons, caurspīdīgs,&nbsp;</span><span style=""background-color:rgb(255, 255, 255); font-family:arial; font-size:13px"">A20 akrila līmslānis, cietība Shore-M 75, iepakoti blistera iepakojumā. Vienā blistera iepakojumā 56 gabali. Minimālais pasūtījums 18 blistera iepakojumi (1008 gab).</span>";3M;Līmes un līmlentes;1204718346---2841_W copy.gif;"";"";Ленты и клеи;"";"";Tapes & Adhesives
3M SJ5309 Bumpons;"3M SJ5309 Bumpons, caurspīdīgs, <span style=""background-color:rgb(255, 255, 255); font-family:arial; font-size:13px"">A20 akrila līmslānis, cietība Shore-M 75, iepakoti blistera iepakojumā. Vienā blistera iepakojumā 12 gabali. Minimālais pasūtījums 18 blistera iepakojumi (216 gab).</span>";3M;Līmes un līmlentes;1204718226---2822-NB copy.gif;"";"";Ленты и клеи;"";"";Tapes & Adhesives
3M SJ5744 Bumpons;"<span style=""background-color:rgb(255, 255, 255); font-family:arial; font-size:13px"">3M SJ5744 Bumpons, melns,&nbsp;</span><span style=""background-color:rgb(255, 255, 255); font-family:arial; font-size:13px"">R30 naturālā kaučuka līmslānis, cietība Shore-M 75.</span>";3M;Līmes un līmlentes;1204717745---2821-B copy.gif;"";"";Ленты и клеи;"";"";Tapes & Adhesives
3M SJ6553 Bumpons;"<span style=""background-color:rgb(255, 255, 255); font-family:arial; font-size:13px"">3M SJ6553 Bumpons, caurspīdīgs,&quot;klusi&quot;, &nbsp;</span><span style=""background-color:rgb(255, 255, 255); font-family:arial; font-size:13px"">R25 sintētiskā kaučuka līmslānis, cietība Shore-M 56, iepakoti blistera iepakojumā. Vienā blistera iepakojumā 132 gabali. Minimālais pasūtījums 18 blistera iepakojumi (2376 gab).</span>";3M;Līmes un līmlentes;1204718447---2844-B copy.gif;"";"";Ленты и клеи;"";"";Tapes & Adhesives
Pieslīpēšanas cilindrs ar 19mm vārpstu (Alumīnija oksīds);"Pieslīpē&scaron;anas cilindrs ar 19mm vārpstu (Alumīnija oksīds)<br />
&bull; Apstrādes palieku noņem&scaron;anai.<br />
&bull; Metāla virsmu izlīdzinā&scaron;anai";ADK;Abrazīvie materiāli;1328739711---S-200.jpg;"Лепестковые щетки из лепестков гибкого абразива с оксидом алюминия на
тканевой основе";"Лепестковые щетки из лепестков гибкого абразива с оксидом алюминия на&nbsp;тканевой основе.<br />
100x100x19 mm<br />
100x50x19 mm";Абразивные материалы;"Flap Wheels mounted on a 6mm spindle. 
Aluminium oxide.";"<span style=""color:rgb(0, 0, 0); font-family:arial"">Flap Wheels.&nbsp;Aluminium oxide.</span><br />
100x100x19 mm<br />
100x50x19 mm";Abrasives
Nobeiguma apstrādes cilindrs ar 19mm vārpstu;"Nobeiguma apstrādes cilindrs ar 19mm vārpstu&nbsp;izgatavots no Scotch-Brite materiāla.<br />
&bull; Virsmu nobeiguma apstrādei.<br />
&bull; Pēcapstrādes palieku noņem&scaron;anai.<br />
&bull; Oksīdu noņem&scaron;anai.<br />
&bull; Virsmu izlīdzinā&scaron;anai.";ADK;Abrazīvie materiāli;1328739874---S-200.jpg;Лепестковые щетки Scotch-Brite ;"<h1><span style=""font-size:12px""><span style=""font-family:arial,helvetica,sans-serif"">Лепестковые щетки Scotch-Brite</span></span></h1>
";Абразивные материалы;Finish Flap Brush;"Finish Flap Brush&nbsp;<span style=""color:rgb(0, 0, 0); font-family:arial"">of Scotch-Brite&nbsp;material.</span>";Abrasives
Pieslīpēšanas cilindrs ar 6mm vārpstu (Alumīnija oksīds);"";ADK;Abrazīvie materiāli;1202309572---Green Corps cietais slīpēšanas disks.jpg;Лепестковые щетки с шпинделю 6 мм;"Лепестковые щетки&nbsp;состоят из лепестков гибкого абразива&nbsp;на тканевой основе,&nbsp;&nbsp;шпиндель 6 мм.";Абразивные материалы;Flap Wheel mounted on a spindle 6mm ;"Flap Wheels&nbsp;mounted on a 6mm&nbsp;spindle.&nbsp;<br />
Aluminium oxide.";Abrasives
3M Scotch-Weld Cleaner Spray (Citrus Cleaner);"3M Cleaner Spray (Citrus Cleaner)&nbsp;ir universāls attīrītājs aierosola iepakojumā. Piemērots līmes traipu, tauku un eļlas noņem&scaron;anai no krāsota metāla, nerūsējo&scaron;ā tērauda, alumīnija, keramikas, stikla, porcelāna un dažādām plastmasām. &nbsp;Var lietot krāsojumam un plastmasas pārklājumu attauko&scaron;anai, tos nebojājot. Patīkams citrusa aromāts.";3M;Līmes un līmlentes;1202405982---2128.jpg;"";"&nbsp;";Ленты и клеи;"";"&nbsp;";Tapes & Adhesives
Abrazīvais disks no 3M Cubitron 777F materiāla ar vītņveida stiprināšanas sistēmu;"Abrazīvais disks no 3M Cubitron 777F materiāla ar vītņveida stiprinā&scaron;anas sistēmu piemērots nerūsējo&scaron;ā tērauda slīpē&scaron;anai.<br />
&nbsp;";ADK;Abrazīvie materiāli;1202223445---3M Scotch Brite nobeiguma apstrādes lentes2.jpg;Шлифовальные круги c винтовой системой крепления из материала 3M 777F Cubitron ;"Шлифовальные круги c винтовой системой крепления из материала 3M 777F Cubitron&nbsp;";Абразивные материалы;"";"";Abrasives
Kombinētais abrazīvais slīpēšanas lapiņu disks;"Abrazīvie slīpē&scaron;anas lapiņu diski ir izgatavoti no <span style=""color:rgb(0, 0, 0); font-family:arial"">&nbsp;3M Scotch Brite SC-RL materiāla un smil&scaron;papīra</span>.";ADK;Abrazīvie materiāli;1207037333---nobeig_apstr_ACRS.gif;Комбинированные лепестковые круги ;"<span style=""font-size:12px""><span style=""font-family:arial,helvetica,sans-serif"">Комбинированные&nbsp;лепестковые круги&nbsp;&nbsp;из Scotch-Brite&trade;&nbsp;<span style=""color:rgb(0, 0, 0)"">SC-RL&nbsp;</span>абразивного материала&nbsp;и&nbsp;лепестков гибкого абразива на тканевой основе.</span></span>";Абразивные материалы;Combination flaps disc ;"Combination Flaps disc of Scotch-Brite <span style=""color:rgb(0, 0, 0); font-family:arial"">SC-RL</span>&nbsp;material&nbsp;and&nbsp;coated abrasive.";Abrasives
3M Hookit disku pamatne M14 d125mm;3M Hookit disku pamatne M14 d125mm;3M;Abrazīvie materiāli;1328739472---S-200.jpg;Пластиковый диск-подошва под липучку М14 диаметр 125мм;"<span style=""color:rgb(84, 84, 84); font-family:arial,helvetica,sans-serif; font-size:12px"">Пластиковый диск-подошва под липучку М14 диаметр 125мм</span>";Абразивные материалы;Disc pad for hook and loop discs M14 125mm;Disc Pad for hook and loop discs M14 125mm.;Abrasives
Filca nobeiguma apstrādes lapiņu disks d125mm;Filca nobeiguma apstrādes lapiņu disks d125mm.;ADK;Abrazīvie materiāli;1326269810---8322.jpg;"";"";Абразивные материалы;"";"";Abrasives
Nobeiguma apstrādes disks no 3M Scotch Brite SC-RL materiāla ar vītņveida stiprināšanas sistēmu;"Nobeiguma apstrādes disks no 3M Scotch Brite SC-RL materiāla ar vītņveida stiprinā&scaron;anas sistēmu.";ADK;Abrazīvie materiāli;1202226354---Saint Gobain KX-RR FLEX abrazīvās auduma lentes.jpg;Шлифовальные круги c винтовой системой крепления из материала 3M Scotch Brite SC-RL;Шлифовальные круги c винтовой системой крепления из материала 3M Scotch Brite SC-RL.;Абразивные материалы;"";"";Abrasives
3M Roloc disku turētājs M14;"3M Roloc disku turētājs ar M14 75mm.&nbsp;";3M;Abrazīvie materiāli;1202222175---CF.jpg;3M оправка для кругoв с креплением Roloc M14;"3M оправка для кругoв с креплением Roloc&nbsp;75 x M14-2.0.";Абразивные материалы;3M Roloc back-up pad M14;"3M Roloc Rubber Back-Up Pad&nbsp;75 x M14-2.0 hard.";Abrasives
3M Roloc disku turētājs ar 6mm vārpstu;"<span style=""font-family:arial; font-size:12.727272033691406px"">3M Roloc disku turētājs ar 6mm vārpstu d25mm.</span>";3M;Abrazīvie materiāli;1202222496---3M 953FA  Trizact.jpg;"3M оправка для кругoв с креплением Roloc  6 мм ось
";"3M оправка для кругoв с креплением Roloc &nbsp;<br />
6 мм ось,&nbsp;<span style=""font-family:helvetica neue,helvetica,arial,sans-serif; font-size:14px"">диаметр 25&nbsp;</span>&nbsp;мм.";Абразивные материалы;3M Roloc disc plastic holders 6 x 25mm.;"<span style=""font-family:arial,helvetica,sans-serif"">Rugged, plastic holder provides support for all Roloc products including discs and combi wheels. Holder has deeper internal thread to accept products with Roloc+ Button.</span><br />
SIZE 6 x 25mm.";Abrasives
Dual Lock 356D;Dual Lock 356D;3M;Līmes un līmlentes;1202405335---6098.jpg;"";"&nbsp;";Ленты и клеи;"";"&nbsp;";Tapes & Adhesives
3M Scotch Weld 77 aerosola līme;"<p>3M Scotch Weld 77 aerosola līme ir vispārēja pielietojuma ar ātru iedarbību. Līme paredzēta līmējamo materiālu pastāvīgai nostiprinā&scaron;anai. Līmes savieno&scaron;anās īpa&scaron;ības īsu brīdi pēc līmes uzklā&scaron;anas pieļauj līmējamā materiāla nelielu pārvieto&scaron;anu. Uzklājot līmi uz abām virsmām var salīmēt putuplastu, audumu, papīru, koku, platsmasu, folliju, gumiju. 500ml.</p>
";3M;Līmes un līmlentes;1202406117---2138.jpg;"";"";Ленты и клеи;"";"";Tapes & Adhesives
3M Scotch Weld 74 aerosola līme;"3M Scotch Weld 74 aerosola līme ir piemērota audumu, porainu materiālu un porolona līmē&scaron;anai.<br />
500ml.";3M;Līmes un līmlentes;1202406261---5925.jpg;"";"";Ленты и клеи;"";"";Tapes & Adhesives
3M Scotch Weld 90 aerosola līme;"<p><span style=""font-size:small"">3M Scotch Weld 90 aerosola līme ir augstas stiprības, ātri žūsto&scaron;a. Izmanto ilglaicīgai fiksācijai. Piemētota dekoratīvā lamināta, koka, vieglmetālu, plastmasu, t.sk. polietilēna un polipropilēna, filca, auduma, papīra un putuplasta salīmē&scaron;anai. Līme ir ūdensnoturīga. 500ml.</span></p>
";3M;Līmes un līmlentes;1202751605---2730.jpg;"";"";Ленты и клеи;"";"";Tapes & Adhesives
3M Scotch Weld 75 aerosola līme;"<p>3M Scotch Weld 75 aerosola līme ir lēni žūsto&scaron;a, aktivizējas zem spiediena. Līmes saķer&scaron;anās īpa&scaron;ības pieļauj vairākkārtēju līmējamā materiāla pārlīmē&scaron;anu. Piemērota auduma, papīra, kartona, follijas un plastmasu salīmē&scaron;anai vai pagaidu fiksācijai.<br />
500ml.</p>
";3M;Līmes un līmlentes;1202406202---5911.jpg;"";"";Ленты и клеи;"";"";Tapes & Adhesives
"3M 4611 VHB  Divpusējā līmlente, tumši pelēka, augstas temperatūras izturīga, metālam";"3M 4611F VHB divpusējā līmlente, tum&scaron;i pelēka, augstas temperatūras izturīga, līdz +220 &ordm;C.&nbsp;<br />
<strong>Īpa&scaron;i piemērota lieto&scaron;anai augstā temperatūrā, var tikt izmantota pulverkrā&scaron;o&scaron;anas procesā</strong>.<br />
- Cietajam PVC, ABS, akrilam (PMMA), polikarbonātam un c.c. plastmasām, izņemot PE, PP, PTFE un silikonu.<br />
- Tēraudam, nerūsējo&scaron;am tēraudam, alūmīnijam.<br />
- Krāsotām un lakotām virsmām.<br />
- Stiklam un keramikai.";3M;Līmes un līmlentes;1202404603---6055 A2.jpg;"";"";Ленты и клеи;"";"";Tapes & Adhesives
"3M 4910 VHB  Divpusējā līmlente, caurspīdīga, stiklam";"3M 4910 VHB &nbsp;Divpusējā līmlente caurspīdīga.<br />
Īpa&scaron;i piemērota caurspīdīgu materiālu līmē&scaron;anai.<br />
- Stiklam, organiskajam stiklam.<br />
- polikarbonātam, PMMA.<br />
&nbsp;";3M;Līmes un līmlentes;1202403339---6900.jpg;"";"";Ленты и клеи;"";"";Tapes & Adhesives
"3M 4941 VHB  Divpusējā līmlente pelēka, mīkstajām PVC";"3M 4941 VHB &nbsp;Divpusējā līmlente pelēka.<br />
<strong>Īpa&scaron;i piemērota mīkstajām PVC.</strong><br />
- Mīkstajam un cietajam PVC, ABS, akrilam (PMMA), polikarbonātam u.c. plastmasām, <em><strong>izņemot</strong> PE, PP, PTFE, silikonu</em>.<br />
- Tēraudam, nerūsējo&scaron;am tēraudam, alumīnijam.<br />
- Krāsotām un lakotām virsmām.<br />
- Stiklam un keramikai.";3M;Līmes un līmlentes;1202403596---6051 A1.jpg;"";"";Ленты и клеи;"";"";Tapes & Adhesives
3M 969 llīmlente ATG700 aplikatoram;"Līmlente piemērota &nbsp;produktu paraugu ielīmē&scaron;anai paraugu&nbsp;katalogos, reklāmas displeju nostiprinā&scaron;anai, apdares joslu pielīmē&scaron;anai pie mēbelēm. netiek rekomendēta izmanto&scaron;anai tie&scaron;ā UV staru iedarbībā.<br />
<span style=""background-color:rgb(255, 255, 255); font-family:arial; font-size:12.727272033691406px"">Līmlentes biezums - 0.13mm; līmes veids - 300 augstas stiprības akrila līme plastmasām; temperatūras izturība īslaicīgi - &nbsp;121℃, ilgtermiņā -&nbsp;66℃. &nbsp; &nbsp; &nbsp; &nbsp; &nbsp;</span>";3M;Līmes un līmlentes;1202404757---6057 ABE1.jpg;"";"";Ленты и клеи;"";"";Tapes & Adhesives
3M 924 līmlente ATG700 aplikatoram;"Līmlente veido labu saķeri ar papīru, kartonu, foliju, plēvi, stiklu, metālu. Teicama UV staru izturība.<br />
Līmlentes biezums - 0.05mm; līmes veids - 400 vidēja lipīguma akrila līme; temperatūras izturība īslaicīgi - &nbsp;121℃, ilgtermiņā -&nbsp;82℃. &nbsp; &nbsp; &nbsp; &nbsp; &nbsp;<br />
<br />
&nbsp;";3M;Līmes un līmlentes;1202404863---6059 ABEK1.jpg;"";"";Ленты и клеи;"";"";Tapes & Adhesives
3M ATG700 līmlentes aplikātors ;"Ar 3M divpusējo akrila līmlentu tehnoloģiju un ATG līmē&scaron;anas sistēmu iespējams līmēt papīru,&nbsp;kartonu, stiklu, plastmasu, laminēt metālu, koku u.c. materiālus.<br />
Viegli &nbsp;nospiežot &nbsp;slēdzi &nbsp;uz &nbsp;Scotch&reg; &nbsp;ATG &nbsp;aplikatora, &nbsp;ar&nbsp; neliela &nbsp;spiediena &nbsp;palīdzību&nbsp; līme &nbsp;no līmlentes tiek pārnesta uz materiāla virsmu un līmlentes aizsargpapīrs tiek ievilkts atpakaļ aplikatorā. Lieto&scaron;ana ir viegla, ātra un tīra.";3M;Līmes un līmlentes;1202751952---2741.jpg;"";"";Ленты и клеи;"";"";Tapes & Adhesives
3M Nerūsējoša tērauda pulēšanas līdzeklis 600ml;Aerosols 600ml.;3M;Abrazīvie materiāli;1202308917---574 AlZn lapiņdiski.jpg;"";"";Абразивные материалы;"";"";Abrasives
3M Safety-Walk 510 Comformable pretslīdēšanas lente;"3M Safety-Walk 510 Comformable pretslīdē&scaron;anas lente.&nbsp;Var līmēt uz nelīdzenām virsmām, piemērota ražo&scaron;anas telpām. Melna.&nbsp;";3M;Līmes un līmlentes;1202405583---6035.jpg;"";"";Ленты и клеи;"S/W SLIP RESISTANT -  BLACK 510 Conformable, 51 MM X 18.3 M, Ideal for use on diamond grade safety plates, steps and other irregular surfaces. Mineral coated, slip-resistant with aluminum foil backing. Conforms to irregular surfaces and around edges, 2rls/case";"";Tapes & Adhesives
3M Safety-Walk 620 General Purpose pretslīdēšanas lente ;"3M Safety-Walk 620 General Purpose pretslīdē&scaron;anas lente.&nbsp;Caurspīdīga.&nbsp;";3M;Līmes un līmlentes;1202405436---6099 ABEK2.jpg;"";"";Ленты и клеи;"";"";Tapes & Adhesives
3M Safety-Walk 280 Resilient pretslīdēšanas lente ;"3M Safety-Walk 280 Resilient&nbsp;pretslīdē&scaron;anas lente. Elastīga un mitrumizturīga, var staigāt ar basām kājām.<br />
SR51K caurspīdīga.<br />
SR25V balta.";3M;Līmes un līmlentes;1202405698---2125.jpg;"";"";Ленты и клеи;"";"";Tapes & Adhesives
"3M VHB virsmas attīrītājs, 1L";"VHB virsmas attīrītājs, izopropilspirts 50%/50%.";3M;Līmes un līmlentes;1202406046---2135.jpg;"";"";Ленты и клеи;"";"";Tapes & Adhesives
Fladderi ar  M14 vītni;"";ADK;Abrazīvie materiāli;1207036980---nobei_apstrade_2SFIN.gif;"";"";Абразивные материалы;"";"";Abrasives
Kombinētais abrazīvais slīpēšanas lapiņu disks;"Abrazīvie slīpē&scaron;anas lapiņu diski ir izgatavoti no <span style=""color:rgb(0, 0, 0); font-family:arial"">&nbsp;3M Scotch Brite SC-RL materiāla un smil&scaron;papīra</span>.";ADK;Abrazīvie materiāli;1207037333---nobeig_apstr_ACRS.gif;Комбинированные лепестковые круги ;"<span style=""font-size:12px""><span style=""font-family:arial,helvetica,sans-serif"">Комбинированные&nbsp;лепестковые круги&nbsp;&nbsp;из Scotch-Brite&trade;&nbsp;<span style=""color:rgb(0, 0, 0)"">SC-RL&nbsp;</span>абразивного материала&nbsp;и&nbsp;лепестков гибкого абразива на тканевой основе.</span></span>";Абразивные материалы;Combination flaps disc ;"Combination Flaps disc of Scotch-Brite <span style=""color:rgb(0, 0, 0); font-family:arial"">SC-RL</span>&nbsp;material&nbsp;and&nbsp;coated abrasive.";Abrasives
3M 2125 P2R daļiņu filtrs ;"<span style=""font-family:arial; font-size:12.727272033691406px"">3M 2000.sērijas&nbsp;<strong>daļiņu filtri</strong>&nbsp;ir izstrādāti lieto&scaron;anai kopā ar 3M pilnas sejas &nbsp;maskām un pusmaskām. Atbilsto&scaron;i darba vides izvērtējumam var izvēlēties atbilsto&scaron;u filtru risinājumu, t.i. daļiņu filtrus, gāzu/ tvaiku filtrus vai to kombinācijas.</span><br />
<strong>Aizsardzības līmenis &nbsp;P2R pret&nbsp;</strong><span style=""font-family:arial; font-size:12.727272033691406px"">&nbsp;</span><strong>cietām un &scaron;ķidrām daļiņām.<br />
Kastē norādīts pāru skaits.</strong>";3M;Individuālie darba aizsardzības līdzekļi;1202402393---7583.jpg;3M 2125 P2 Противоаэрозольные фильтры;"<span style=""color:rgb(75, 75, 75); font-family:verdana,geneva,tahoma,sans-serif"">Фильтры 3M серии 2000 обладают малым весом, не создают затруднений для дыхания. Уникальная байонетная система крепления фильтров серии 2000 позволяет легко устанавливать фильтры в маску или полумаску. Характерный щелчок проинформирует Вас, что фильтр надежно закреплен.</span>";Средства индивидуальной защиты;3M 2125 P2 Particulate filter;"<span style=""font-family:verdana,geneva,tahoma,sans-serif"">P2 particulate filter.&nbsp;</span><span style=""font-family:verdana,geneva,tahoma,sans-serif"">Designed to make breathing easier while lasting longer.&nbsp;</span>";Personal Safety
"3M 6059 6000.sērijas filtrs ABEK1 pret organiskām, neorganiskām un skābju gāzēm, amonjaku";"<span style=""font-family:arial; font-size:12.727272033691406px"">3M 6000.sērijas&nbsp;<strong>gāzes/tvaiku filtri</strong>&nbsp;ir izstrādāti lieto&scaron;anai kopā ar 3M pilnas sejas &nbsp;maskām un pusmaskām. Atbilsto&scaron;i darba vides izvērtējumam var izvēlēties atbilsto&scaron;u filtru risinājumu, t.i. daļiņu filtrus, gāzu/ tvaiku filtrus vai to kombinācijas.</span><br />
<strong>Aizsardzības līmenis &nbsp;ABEK1 pret&nbsp;</strong><span style=""font-family:arial; font-size:12.727272033691406px"">&nbsp;</span><strong>organiskām, neorganiskām un skābju gāzēm, amonjaku un tā atvasinājumiem.</strong><br />
<span style=""font-family:arial; font-size:12.727272033691406px"">Kastē norādīts pāru skaits.</span>";3M;Individuālie darba aizsardzības līdzekļi;1202401690---9926.jpg;3M 6059  ABEK1 Защита от газа и пара;"&nbsp;<span style=""font-family:verdana,geneva,tahoma,sans-serif"">Фильтр 3M&trade; 6059 ABEK1 защищает от органических паров, кислых газов, паров аммиака и его производных. Подходит для полумасок серий 6000 и 7500, а также полнолицевых масок серий 6000 и FF-400. Эти фильтры необходимы там, где используют или производят лакокрасочные материалы, используют кислоту в производстве. Например, в автомобильном производстве, самолетостроении, типографиях, лакокрасночной промышленности, производстве клеев и использование, очистка кислотой, травление металла, производство удобрений, холодильного оборудования.</span>";Средства индивидуальной защиты;3M 6059 ABEK1 Gas and Vapour Cartridge;"<span style=""font-family:verdana,geneva,tahoma,sans-serif"">The 3M&trade; 6059 ABEK1 Filters protect against organic vapours. Suitable for 3M&trade; 6000 and 3M&trade; 7000 Series Half and Full Face Masks.</span>";Personal Safety
"3M 6099 6000.sērijas filtrs ABEK2P3R pret organiskiem tvaikiem, skābju gāzēm, amonjaku un daļiņām";"<span style=""font-family:arial; font-size:12.727272033691406px"">&Scaron;ie 3M 6000.sērijas&nbsp;</span><strong>gāzes/tvaiku un daļiņu filtri</strong><span style=""font-family:arial; font-size:12.727272033691406px"">&nbsp;ir izstrādāti lieto&scaron;anai kopā&nbsp;<strong>tikai &nbsp;ar 3M pilnas sejas &nbsp;maskām.&nbsp;</strong></span><br />
<strong>Aizsardzības līmenis&nbsp;ABEK2P3R pret organiskiem tvaikiem, neorganiskām un skābju gāzēm, amonjaku un tā atvasinājumiem un daļiņām.<br />
Kastē norādīts pāru skaits.<br />
<strong>Minimālais pasūtījums 16 pāri.</strong></strong>";3M;Individuālie darba aizsardzības līdzekļi;1202402143---7581.jpg;"3M 6099 ABEK2P3R Защита от газов, паров, аэрозолей";"<p><span style=""font-family:verdana,geneva,tahoma,sans-serif"">Фильтр 3M&trade; 6099 ABEK2P3R защищает от газов, паров, жидких и твердых аэрозолей, аммиака и его производных. Подходит для полумасок серий 6000 и 7500, а также полнолицевых масок серий 6000 и FF-400. Типичные области применения для этих фильтров: лаборатории и конкретные ситуации загрязнения окружающей среды парами, газами, аэрозолями, аммиаком.</span></p>

<p><span style=""font-family:arial,helvetica,sans-serif""><span style=""color:rgb(0, 0, 0)"">Кислотные газы.&nbsp;</span><span style=""color:rgb(0, 0, 0)"">Защита от аммиака</span><span style=""color:rgb(0, 0, 0)"">&nbsp;от неорганических газов.&nbsp;</span><span style=""color:rgb(0, 0, 0)"">Пары органических веществ (температура кипения &gt;65 градусов).&nbsp;</span><br />
<span style=""color:rgb(0, 0, 0)"">Противоаэрозольный.</span></span></p>
";Средства индивидуальной защиты;"3M 6099 ABEK2P3R Gas, Vapour and Particulate Filter";"<span style=""font-family:verdana,geneva,tahoma,sans-serif"">The 3M&trade; 6099 ABEK2P3R Filters protect against gases, vapours and particulates. Suitable for 3M&trade; 6000 and 3M&trade; 7000 Series Full Face Masks. Typical industrial applications for filters are laboratories and particulate applications.</span>";Personal Safety
3M 6035 P3R daļiņu filtrs pret cietām un šķidrām daļiņām plastikāta korpusā;"<span style=""font-family:arial; font-size:12.727272033691406px"">3M 6035/6038.sērijas&nbsp;<strong>daļiņu filtri</strong>&nbsp;ir izstrādāti lieto&scaron;anai kopā ar 3M pilnas sejas &nbsp;maskām un pusmaskām. Atbilsto&scaron;i darba vides izvērtējumam var izvēlēties atbilsto&scaron;u filtru risinājumu, t.i. daļiņu filtrus, gāzu/ tvaiku filtrus vai to kombinācijas.</span><br />
<strong>Aizsardzības līmenis &nbsp;P3R pret&nbsp;</strong><span style=""font-family:arial; font-size:12.727272033691406px"">&nbsp;</span><strong>cietām un &scaron;ķidrām daļiņām plastikāta korpusā.</strong><br />
<span style=""font-family:arial; font-size:12.727272033691406px"">Kastē norādīts pāru skaits.</span>";3M;Individuālie darba aizsardzības līdzekļi;1202402246---7582.jpg;6035 P3 Противоаэрозольный фильтр;"<span style=""font-size:14px""><span dir=""ltr""><span style=""font-family:verdana,geneva,tahoma,sans-serif"">Трапециевидный фильтр 3M&trade; 6035.</span><br />
Степень защиты<strong> &nbsp;</strong><span style=""color:rgb(0, 0, 0); font-family:verdana,arial,sans-serif"">P3R.&nbsp;Тонкодисперсная пыль,&nbsp;Водомасляные аэрозоли.</span></span></span>";Средства индивидуальной защиты;6035 P3 Particulate Filter ;"<span style=""font-size:14px""><span style=""font-family:arial,helvetica,sans-serif"">3M Cartridge Filter 6035 P3 R.<br />
Filter Type -&nbsp;<span style=""color:rgb(75, 75, 75)"">Particulate Filters.</span><br />
Gas &amp; Vapour Protection Type - Solid and liquid particles &ndash; in solid plastic case for rough application.</span></span><br />
&nbsp;";Personal Safety
"3M 8310 Daļiņu respirators 
";"3M 8300. sērija - Comfort bezapkopes, kausiņa formas daļiņu respiratori.<br />
FFP1 Daļiņu respirators bez vārsta.";3M;Individuālie darba aizsardzības līdzekļi;1207646593---SJ5302.gif;3M 8310 Противоаэрозольный респиратор;"<span style=""font-family: Verdana, Geneva, Tahoma, sans-serif; line-height: 18px;"">Респираторы серии 3M 8300 очень удобны и приятны в использовании.<br />
</span><font face=""verdana, arial, sans-serif""><span style=""font-size: 11px; line-height: 16px;"">Уровень защиты - FFP1.</span></font>";Средства индивидуальной защиты;3M 8310 Particle respirator;"<span style=""font-family: Verdana, Geneva, Tahoma, sans-serif; line-height: 18px;"">Protects against low levels of dusts and water and oil based mists found in a wide variety of industrial applications and other work situations requiring FFP1 protection.</span>";Personal Safety
3M Fahrenheit pieguļošās aizsargbrilles;"3M Fahrenheit aizsargbrilles ir pieejamas ar acetāta vai polikarbonāta lēcām. Aizsargbrilles izstrādātas, lai derētu ar optiskajām brillēm. Aizsargbriles ar acetāta &nbsp;lēcu &nbsp;aizsargā pret skābes, sārmu &scaron;ļakatām. Piemērotas darbam laboratorijās, krāso&scaron;anai.";3M;Individuālie darba aizsardzības līdzekļi;1242981828---IMGP0282.JPG;"";"&nbsp;";Средства индивидуальной защиты;"";"&nbsp;";Personal Safety
"3M EAR Soft Yellow ES-01-001 Ausu aizbāžņi, neona dzelteni, SNR 36dB";"3M EAR Soft Yellow ES-01-001 Ausu aizbāžņi, neona dzelteni&nbsp;ir izgatavoti no lēnas izple&scaron;anās, poliuretāna putu materiāla. &Scaron;iem aizbāžņiem ir vienmērīgi sadalīts spiediens, kas padara tos elastīgus un ar optimālu komfortu lieliski noslēdz ausi.&nbsp;<br />
SNR 36dB<br />
Kastē norādīts pāru skaits.";3M;Individuālie darba aizsardzības līdzekļi;1244022224---PC237_120_50_m14.jpg;"3M EAR ES-01-001 Желтые вкладыши, SNR 36dB";"Противошумные вкладыши E-A-Rsoft с высокой звуковой эффективностью. Изготовлены из мягкого полиуретанового материала. Беруши обеспечивают малое равновесное давление, не вызывают раздражения. Данные вкладыши доступны также с синим виниловым шнуром, совместимы с другими средствами индивидуальной защиты.&nbsp;<br />
В ящике означает число пар.";Средства индивидуальной защиты;"3M EAR ES-01-001 Yellow ear plugs, SNR 36dB";"The 3M E-A-Rsoft Ear Plugs are made from a slow expanding, PU foam material. An Ear Plug that gives evenly distributed pressure allowing flexibility and a good seal with optimum comfort.<br />
The box indicates the number of pairs.";Personal Safety
"3M EAR Soft Yellow ES-01-001 Ausu aizbāžņi, neona dzelteni, 500 pāru iepakojums";"<span style=""font-family:arial; font-size:13px"">Ausu aizbāžņi ir izgatavoti no lēnas izple&scaron;anās, poliuretāna putu materiāla. &Scaron;iem aizbāžņiem ir vienmērīgi sadalīts spiediens, kas padara tos elastīgus un ar optimālu komfortu lieliski noslēdz ausi.<br />
SNR 36dB.</span><br />
Kastē norādīts pāru skaits.";3M;Individuālie darba aizsardzības līdzekļi;1244022226---PC_777_120_50_m14.jpg;"3M EAR ES-01-010 Желтые вкладыши, 500 пар";"<span style=""font-family:verdana,geneva,tahoma,sans-serif"">Противошумные вкладыши E-A-Rsoft с высокой звуковой эффективностью. Изготовлены из мягкого полиуретанового материала. Беруши обеспечивают малое равновесное давление, не вызывают раздражения. Данные вкладыши доступны также с синим виниловым шнуром, совместимы с другими средствами индивидуальной защиты.&nbsp;</span><br />
<span style=""font-family:verdana,geneva,tahoma,sans-serif"">В ящике означает число пар.</span>";Средства индивидуальной защиты;"3M EAR ES-01-010 Ear plugs, 500 pairs";"Ear Plugs are made from a slow expanding, PU foam material. An Ear Plug that gives evenly distributed pressure allowing flexibility and a good seal with optimum comfort.<br />
<span style=""font-family:verdana,geneva,tahoma,sans-serif; font-size:small"">The box indicates the number of pairs.</span>";Personal Safety
Filca disks ar velūra pamatni d125mm;Filca disks ar velūra pamatni d125mm.;ADK;Abrazīvie materiāli;1326363104---4255.jpg;"";"";Абразивные материалы;"";"";Abrasives
Nobeiguma apstrādes disks no 3M Scotch Brite SC-RL materiāla ar vītņveida stiprināšanas sistēmu;"Nobeiguma apstrādes disks no 3M Scotch Brite SC-RL materiāla ar vītņveida stiprinā&scaron;anas sistēmu.";ADK;Abrazīvie materiāli;1202226354---Saint Gobain KX-RR FLEX abrazīvās auduma lentes.jpg;Шлифовальные круги c винтовой системой крепления из материала 3M Scotch Brite SC-RL;Шлифовальные круги c винтовой системой крепления из материала 3M Scotch Brite SC-RL.;Абразивные материалы;"";"";Abrasives
3M Scotch-Weld Cleaner Spray (Citrus Cleaner);"3M Cleaner Spray (Citrus Cleaner)&nbsp;ir universāls attīrītājs aierosola iepakojumā. Piemērots līmes traipu, tauku un eļlas noņem&scaron;anai no krāsota metāla, nerūsējo&scaron;ā tērauda, alumīnija, keramikas, stikla, porcelāna un dažādām plastmasām. &nbsp;Var lietot krāsojumam un plastmasas pārklājumu attauko&scaron;anai, tos nebojājot. Patīkams citrusa aromāts.";3M;Līmes un līmlentes;1202405982---2128.jpg;"";"&nbsp;";Ленты и клеи;"";"&nbsp;";Tapes & Adhesives
3M 984F Cubitron II Roloc abrazīvais disks;3M 984F Cubitron II Roloc abrazīvais disks d75mm.;3M;Abrazīvie materiāli;1244022496---med_disks_122.jpg;3M Шлифовальные круги Cubitron II с креплением Roloc;"<span style=""font-family:arial,helvetica,sans-serif; font-size:13px"">Шлифовальные круги 3M Cubitron II Roloc с креплением Roloc на высокопрочной полиэфирной основе с минералом Cubitron II предназначены для обработки изделий из нержавеющей стали и сплавов цветных металлов.&nbsp;</span><span style=""font-family:arial,helvetica,sans-serif; font-size:13px"">Использование минерала Cubitron II в качестве абразива увеличивает скорость обработки в несколько раз по сравнению с абразивами из керамозерна и во много раз с традиционными абразивами, снижает температуру в точке резания, что позволяет избежать прижогов и появления цветов побежалости.</span>";Абразивные материалы;3M 984F Cubitron II Roloc Durable Edge Disc;"Grind, blend, finish and deburr longer, faster and with greater productivity than ever on all metal types with Cubitron II Roloc Disc. In fact, it&rsquo;s one of the longest-lasting Roloc Discs available in the industry today. Cubitron II Roloc discs out perform others because they are power-packed with fast-cutting 3M precision shaped grain &ndash; a self-sharpening feature that keeps them running cool and long. Plus, a durable edge backing makes the discs stronger around the edges so they won&rsquo;t fray or wear out prematurely. And the Cubitron&trade; II brand means it&rsquo;s all-around industrial tough &ndash; for all-around superior performance.";Abrasives
BRE 14-3 125 Set;"Elektriskā lentes slīpma&scaron;īna.<br />
Ātruma regulētājs 4- 12m/sec.,&nbsp;1200 W, 3,9 Kg.<br />
Lentes izmērs 40*760mm<br />
Piemērota apaļcauruļu apstrādei.";"FLEX
";Instrumenti un iekārtas;1244201339---4520_kombinzons.jpg;"";"";Инструмент и оборудование;"";"";Tools and equipment
"3M VHB virsmas attīrītājs, 1L";"VHB virsmas attīrītājs, izopropilspirts 50%/50%.";3M;Līmes un līmlentes;1202406046---2135.jpg;"";"";Ленты и клеи;"";"";Tapes & Adhesives
3M Peltor Austiņas bērniem;"3M Peltor austiņas bērniem, neona zaļas.";3M;Individuālie darba aizsardzības līdzekļi;1244205371---NC_POL_120_50m14.jpg;"";"";Средства индивидуальной защиты;"";"";Personal Safety
"3M G500 Sejas aizsargs, mežstrādnieku sistēma ar tērauda sietiņa sejsargu un austiņām";"<span style=""font-family:arial; font-size:12.727272033691406px"">3M G500V5CH510-OR industriālā sistēma ar nerūsējo&scaron;ā tērauda sietiņa 5C sejsargu un Optime I austiņām nodro&scaron;ina sejas un dzirdes aizsardzību. Sejsargs nodro&scaron;ina sejas aizsardzību pret lielā ātrumā lidojo&scaron;ām daļiņām no priek&scaron;as un sāniem. Lai uzlabotu acu aizsardzību G500 sistēmai var pievienot 3M integrētas aizsargbrilles. Sejas aizsargu var izmantot gan ar austiņām, gan bez tām.</span>";3M;Individuālie darba aizsardzības līdzekļi;1244205374---KNC_CO-120_50m14.jpg;Шлем 3M G500;"<span style=""color:rgb(75, 75, 75); font-family:verdana,geneva,tahoma,sans-serif; font-size:12px"">Шлем 3M G500 &ndash; это универсальное, комфортное решение для тех, кому необходима защита как лица, так и слуха.</span>";Средства индивидуальной защиты;3M G500 Forestry Headgear Combination;"<span style=""font-family:verdana,geneva,tahoma,sans-serif"">The 3M&trade; G500 Forestry Combination is designed to be combined with hearing protectors or a built-in communication system. A practical, convenient solution for face and hearing protection where no head protection is needed.</span>";Personal Safety
"3M 6038 P3R daļiņu filtrs  pret fluorūdeņradi, ozonu, organiskiem tvaikiem un skābju gāzēm zem AER";"<span style=""font-family:arial; font-size:12.727272033691406px"">3M 6035/6038.sērijas&nbsp;<strong>daļiņu filtri</strong>&nbsp;ir izstrādāti lieto&scaron;anai kopā ar 3M pilnas sejas &nbsp;maskām un pusmaskām. Atbilsto&scaron;i darba vides izvērtējumam var izvēlēties atbilsto&scaron;u filtru risinājumu, t.i. daļiņu filtrus, gāzu/ tvaiku filtrus vai to kombinācijas.</span><br />
<strong>Aizsardzības līmenis &nbsp;P3R pret&nbsp;</strong><span style=""font-family:arial; font-size:12.727272033691406px"">&nbsp;</span><strong>cietām un &scaron;ķidrām daļiņām &nbsp;plastikāta korpusā (pret fluorūdeņradi, ozonu, organiskiem tvaikiem un skābju gāzēm zem AER).<br />
Kastē norādīts pāru skaits.</strong>";3M;Individuālie darba aizsardzības līdzekļi;1244205376---NC_CP120_50_m14.jpg;3M 6038 P3R Противоаэрозольный фильтр;"<span style=""font-family:verdana,geneva,tahoma,sans-serif"">Трапециевидный фильтр 3M&trade; 6038 сочетает в себе надежную защиту и удобство. Уникальная байонетная система крепления фильтров серии 6038 позволяет легко устанавливать фильтры в маску или полумаску. Характерный щелчок проинформирует Вас, что фильтр надежно закреплен.</span><br />
<span style=""font-family:verdana,geneva,tahoma,sans-serif; font-size:13px"">В ящике означает число пар.</span>";Средства индивидуальной защиты;3M 6038 P3R Particulate Filters;"<span style=""font-family:verdana,geneva,tahoma,sans-serif"">3M&trade; 6038 P3R Filters protect against solids and liquid particles, HF up to 10 x TLV additionally against organic vapour and acid gases below OEL in a stable plastic cage for rough applications. Suitable for 3M&trade; 6000 and 3M&trade; 7000 Series Half and Full Face Masks.</span><br />
<span style=""font-family:verdana,geneva,tahoma,sans-serif; font-size:small"">The box indicates the number of pairs.</span>";Personal Safety
3M K113 Daļiņu respirators ;"&nbsp;<span style=""font-family: Arial; font-size: 12.727272033691406px; line-height: 15.994318008422852px;"">3M K100. sērijas salokāmie respiratori ir izgatavoti no izturīga materiāla, lai būtu ērti valkātājam un nodro&scaron;inātu profesionālu aizsardzību par pieņemamu cenu.&nbsp;<br />
</span>FFP3 daļiņu respirators ar vārstu.";3M;Individuālie darba aizsardzības līdzekļi;1257418874---9913.JPG;"";"&nbsp;";Средства индивидуальной защиты;"";"&nbsp;";Personal Safety
3M 6075 6000.sērijas filtrs A1 aizsardzībai pret organiskiem tvaikiem un formaldehīdu;"<span style=""font-family:arial; font-size:12.727272033691406px"">3M 6000.sērijas&nbsp;<strong>gāzes/tvaiku filtri</strong>&nbsp;ir izstrādāti lieto&scaron;anai kopā ar 3M pilnas sejas &nbsp;maskām un pusmaskām. Atbilsto&scaron;i darba vides izvērtējumam var izvēlēties atbilsto&scaron;u filtru risinājumu, t.i. daļiņu filtrus, gāzu/ tvaiku filtrus vai to kombinācijas.</span><br />
<strong>Aizsardzības līmenis &nbsp;A1 + formaldehīds pret&nbsp;</strong><span style=""font-family:arial; font-size:12.727272033691406px"">&nbsp;</span><strong>organiskiem tvaikiem un formaldehīdu.<br />
Kastē norādīts pāru skaits.<br />
<strong>Minimālais pasūtījums 32 pāri.</strong></strong>";3M;Individuālie darba aizsardzības līdzekļi;1213000826---4530_500pixapplication_welding.jpg;3M 6075 A1 + Formaldehyde Защита от газа и пара;"<span style=""color:rgb(75, 75, 75); font-family:verdana,geneva,tahoma,sans-serif; font-size:12px"">Фильтры 3M&trade; 6075 A1 + формальдегид защищает от органических паров и формальдегида. Подходит для полумасок серий 6000 и 7500, а также полнолицевых масок серий 6000 и FF-400. Эти фильтры необходимы там, где используют или производят лакокрасочные материалы. Например, в автомобильном производстве, самолетостроении, судостроении, типографиях, лакокрасночной промышленности, производстве клеев. Благодаря защите от формальдегида возможно использование это фильтра в больницах и химических&nbsp;</span><span style=""color:rgb(75, 75, 75); font-family:verdana,geneva,tahoma,sans-serif; font-size:12px"">лабораториях.</span>";Средства индивидуальной защиты;3M 6075 A1 + Formaldehyde Gas and Vapour Filters ;"<span style=""color:rgb(0, 0, 0); font-family:verdana,geneva,tahoma,sans-serif; font-size:12px"">The 3M&trade; Gas and Vapour Filters 6075 protect against organic vapours. A1 + Formaldehyde Filters. Suitable for 3M&trade; 6000 and 3M&trade; 7000 Series Half and Full Face Masks.</span>";Personal Safety
"3M EAR Soft Yellow ES-01-001 ausu aizbāžņi pudelē, neona dzelteni 500gab.";"3M&nbsp;&nbsp;EAR Soft Yellow ES-01-001 ausu aizbāžņi pudelē, novietojams uz konteinera turē&scaron;anas mehānisma.<br />
SNR 36dB.<br />
<span style=""font-family: Arial; font-size: 12.727272033691406px; line-height: 16px;"">Kastē norādīts pāru skaits.</span>";3M;Individuālie darba aizsardzības līdzekļi;1257422633---austinas_optima_2.JPG;"";"&nbsp;";Средства индивидуальной защиты;"";"&nbsp;";Personal Safety
3M Cubitron II griezējripa ;"3M Cubitron II &nbsp;griezējripa 125 mm x 1.0 mm x 22.23 mm.";3M;Abrazīvie materiāli;1320064607---Disposable earplugs 1100_1110.JPG;3M Cubitron II oтрезные круги;"<div><span style=""font-family:arial,helvetica,sans-serif""><span style=""color:rgb(0, 0, 0)"">Отрезные круги 3M&trade; Cubitron&trade; II предназначены для отрезки листа, трубы, прутка и других изделий из любых металлов. Керамозерно точной формы 3M&trade; обеспечивает рекордно высокую скорость отрезки и большой ресурс.&nbsp;</span></span><br />
Размер&nbsp;125мм x 1.0мм x 22мм.<br />
<span style=""font-family:arial,helvetica,sans-serif"">Макс. частота вращения (об/мин)<strong>&lrm;&nbsp;</strong></span><span style=""font-size:12px"">12250&lrm;.</span></div>
";Абразивные материалы;3M Cubitron II Cut-Off Wheel;"<span style=""font-family:arial,helvetica,sans-serif"">3M&trade; Cubitron&trade; II Cut Off Wheel<span style=""color:rgb(0, 0, 0)"">&nbsp;is designed to provide high cut rates and long life on stainless steels, alloy steels and cast iron.Specially formulated to provide high cut rates and long life on stainless steels, alloy steels and cast iron.</span><br />
Dimension&nbsp;<span style=""color:rgb(0, 0, 0)"">125 x 1 x 22.23mm.</span></span>";Abrasives
3M 982C Cubitron II šķiedras disks melnajam metālam;"<span style=""font-size:12px"">3M 982C Cubitron II &scaron;ķiedras disks melnajam metālam.</span>";3M;Abrazīvie materiāli;1321433928---8312.jpg;3M Cubitron II 982С Фибровый круг;"<span style=""font-family:arial,helvetica,sans-serif""><span style=""color:rgb(0, 0, 0)"">Высокопроизводительные фибровые шлифовальные круги Cubitron II 982C, предназначенные для обработки черных сталей, работают до четырех раз быстрее и служат до двух раз дольше, чем другие фибровые круги с керамическим зерном.</span></span>";Абразивные материалы;3M Cubitron II Fibre Disc 982C;"<p><span style=""font-size:12px""><span style=""font-family:arial,helvetica,sans-serif"">3M Cubitron II Fibre Disc 982C&nbsp;<span style=""color:rgb(0, 0, 0)"">&nbsp;are made with revolutionary 3M precision-shaped ceramic grain technology, engineered with ultra-sharp, fast cutting points that wear evenly, run cool and optimise mineral breakdown to maximise disc life.</span></span></span></p>
";Abrasives
3M Scotch-Brite Radial Bristle BB-ZS saru birste ar 6mm vārpstu;3M Scotch-Brite Radial Bristle BB-ZS saru birste ar 6mm vārpstu;3M;Abrazīvie materiāli;1350482083---3m63520.jpg;3M щетки Scotch-Brite Bristle BB-ZS;"";Абразивные материалы;3M Scotch-Brite Radial Bristle BB-ZS;"<span style=""color:rgb(75, 75, 75); font-family:verdana,geneva,tahoma,sans-serif; font-size:12px"">&nbsp;</span>";Abrasives
Filca pulēšanas disks d150mm;"Filca pulē&scaron;anas disks 150x10x12mm";ADK;Abrazīvie materiāli;1326363552---ts200.jpg;"";"";Абразивные материалы;"";"";Abrasives
3M Versaflo S-133 kapuce;"3M Versaflo S-133 kapuce ar integrētu galvas stiprinājumi&nbsp;<span style=""font-family: Arial; font-size: 12.727272033691406px; line-height: 16px;"">savietojama ar motorizētās gaisa padeves sistēmu.</span>";3M;Individuālie darba aizsardzības līdzekļi;1326277058---831201111.jpg;"";"&nbsp;";Средства индивидуальной защиты;"";"&nbsp;";Personal Safety
"3M Versaflo TR-619E  Turbo motorizētā, gaisu filtrējošā respiratora sākuma komplekts";"3M Versaflo TR-619 Turbo motorizētā, gaisu filtrējo&scaron;ā respiratora sākuma komplekts";3M;Individuālie darba aizsardzības līdzekļi;1326277663---8833.jpg;"";"";Средства индивидуальной защиты;"";"";Personal Safety
3M Speedglas 100.sērijas metināšanas maska;"3M Speedglas 100.sērijas metinā&scaron;anas maska piemērota MMA (elektrodu), MIG/MAG (pusautomātu) un daudziem TIG (volframa inertās gāzes) metinā&scaron;anai. Pieejamas maskas ar 100S-10 (10.), 100S-11 (11.) vai 100V (8.-12.) tum&scaron;ā tonējuma filtriem. Maska savietojama ar 3M daļiņu respiratoriem.";3M;Individuālie darba aizsardzības līdzekļi;1326277741---8320jp.jpg;"";"";Средства индивидуальной защиты;"";"";Personal Safety
3M Speedglas 9100 metināšanas maska;"3M Speedglas 9100 metinā&scaron;anas maska.<br />
Pieejamas maskas ar metinā&scaron;anas filtru skatu laukumu 73x107mm (9100XX), 54x107mm (9100X) un 45x93mm (9100V).";3M;Individuālie darba aizsardzības līdzekļi;1326277975---9310.jpg;"";"";Средства индивидуальной защиты;"";"";Personal Safety
3M Speedglas Adflo motorizētais respirators;"3M Speedglas Adflo motorizētais respirators&nbsp;izstrādāts lieto&scaron;anai kopā ar 3M Speedglas 9100.sērijas metinā&scaron;anas maskām, nodro&scaron;inot aizsardzību pret daļiņām un indīgajām gāzēm.";3M;Individuālie darba aizsardzības līdzekļi;1326278121---9312.jpg;"";"";Средства индивидуальной защиты;"";"";Personal Safety
3M Speedglas 9100 Air metināšanas maska ar 3M Adflo motorizēto respiratoru;"3M Speedglas 9100 Air metinā&scaron;anas maska ar 3M Adflo motorizēto respiratoru.<br />
<span style=""font-family:arial; font-size:12.727272033691406px"">Pieejamas maskas ar metinā&scaron;anas filtru skatu laukumu 73x107mm (9100XX), 54x107mm (9100X) un 45x93mm (9100V).</span>";3M;Individuālie darba aizsardzības līdzekļi;1326278201---9320.jpg;"";"";Средства индивидуальной защиты;"";"";Personal Safety
3M Scotch Weld 76 aerosola līme;"3M Scotch Weld 76 aerosola līme ir augstas noturības ar ilgu atvērto laiku. Ūdensnoturīga un augstas temeperatūras izturība līdz 71&ordm;C. Līmes sacietē&scaron;ana notiek pēc vienas studas. Izstrādāta filca, auduma, papīra, kartona, putuplasta, plastmasu, kuras satur polietilēnu vai polipropilēnu, virsmu savstarpējai salīmē&scaron;anai vai arī salīmē&scaron;anai ar metālu, koku vai stiklu. 500ml.";3M;Līmes un līmlentes;1326278268---9322.jpg;"";"";Ленты и клеи;"";"";Tapes & Adhesives
"3M VHB virsmas attīrītājs, 1L";"VHB virsmas attīrītājs, izopropilspirts 50%/50%.";3M;Līmes un līmlentes;1202406046---2135.jpg;"";"";Ленты и клеи;"";"";Tapes & Adhesives
"3M VHB grunts 94, 236ml";"3M VHB grunts 94, 236ml&nbsp;<br />
Virsmas enerģijas paugstinātājs VHB līmlentēm.";3M;Līmes un līmlentes;1326278386---9925.jpg;"";"";Ленты и клеи;"";"";Tapes & Adhesives
3M 926 līmlente ATG700 aplikatoram;"Visstiprākā līmlente. Līmlente piemērota materiālu piestiprinā&scaron;anai pie&nbsp;alumīnija ruļļiem, nosaukuma plāk&scaron;ņu pielīmē&scaron;anai&nbsp;pie balvām, metāla priek&scaron;metu piestiprinā&scaron;anai, auduma apdares veido&scaron;anai, žalūziju apdarei. Laba UV staru izturība<br />
<span style=""color:rgb(0, 0, 0); font-family:arial"">Līmlentes biezums - 0.13mm; līmes veids - 350 visaugstākā lipīguma akrila līme; temperatūras izturība īslaicīgi - &nbsp;232℃, ilgtermiņā - 149℃. &nbsp;&nbsp;</span>";3M;Līmes un līmlentes;1326278455---9928.jpg;"";"";Ленты и клеи;"";"";Tapes & Adhesives
Cilindra vai piepūšamā veltņa uzgalis;"Piemērots darbam ar cilindriem vai ar piepū&scaron;amajiem veltņiem.<br />
Lentes izmērs 100mm x 289mm, cilindra izmērs 100mm x 100mm x19.<br />
<span style=""font-size:13px"">Pieļaujamais darba ātrums: 1500-8000 apgr/min, abrazīvām lentēm: 3-15m/s.<br />
Piepū&scaron;amais gumijas &nbsp;veltnis nav kompektā.</span>";Glob;Instrumenti un iekārtas;1326278506---9913.jpg;"";"";Инструмент и оборудование;"";"";Tools and equipment
Slīpēšanas pagarinātājs;"<span style=""font-size:14px""><span style=""font-family:arial,helvetica,sans-serif"">Piemērots darbam ar diskiem&nbsp;&Oslash;150mm<br />
<span style=""background-color:rgb(255, 255, 255)"">Maksimālais apgriezienu skaits 5000 min.</span></span></span>";Glob;Instrumenti un iekārtas;1326278719---9914.jpg;"";"";Инструмент и оборудование;"";"";Tools and equipment
Lentes slīpmašīnas uzgalis caurulēm d180;"Lentes izmērs 70mm x 1250mm.<br />
<span style=""background-color:rgb(255, 255, 255); font-family:arial; font-size:12.727272033691406px"">Pieļaujamais darba ātrums: 1500-8000 apgr/min.</span>";Glob;Instrumenti un iekārtas;1326362320---7502.jpg;"";"";Инструмент и оборудование;"";"";Tools and equipment
3M 3738TC līmstienis;"3M 3738TC līmstienis (5/8`` x 2``) (15.87mm x 50.8mm), dzeltenbrūns, izmanto&scaron;anai ar līmpistoli TC.&nbsp;Ku&scaron;anas temperatūra 177&deg;C - 196&deg;C.";3M;Līmes un līmlentes;1326362488---6100.jpg;"";"";Ленты и клеи;"";"";Tapes & Adhesives
3M Termoplastiskās karstlīmes TC Quadrack līmpistole;"3M Termoplastiskās karstlīmes TC Quadrack līmpistole, 220V.";3M;Līmes un līmlentes;1326362565---6700.jpg;"";"";Ленты и клеи;"";"";Tapes & Adhesives
3M 3738Q Quadrack līmstienis;"3M 3738Q Quadrack līmstienis (5/8`` x 8``) (15.87mm x 203.2mm), dzeltenbrūns, izmanto&scaron;anai ar līmpistoli TC Quadrack un EC. Ku&scaron;anas temperatūra 177&deg;C - 196&deg;C.";3M;Līmes un līmlentes;1326362627---4251.jpg;"";"";Ленты и клеи;"";"";Tapes & Adhesives
3M Roloc disku turētājs M14;"3M Roloc disku turētājs ar M14 75mm.&nbsp;";3M;Abrazīvie materiāli;1202222175---CF.jpg;3M оправка для кругoв с креплением Roloc M14;"3M оправка для кругoв с креплением Roloc&nbsp;75 x M14-2.0.";Абразивные материалы;3M Roloc back-up pad M14;"3M Roloc Rubber Back-Up Pad&nbsp;75 x M14-2.0 hard.";Abrasives
3M Hookit disku pamatne M14 d125mm;3M Hookit disku pamatne M14 d125mm;3M;Abrazīvie materiāli;1328739472---S-200.jpg;Пластиковый диск-подошва под липучку М14 диаметр 125мм;"<span style=""color:rgb(84, 84, 84); font-family:arial,helvetica,sans-serif; font-size:12px"">Пластиковый диск-подошва под липучку М14 диаметр 125мм</span>";Абразивные материалы;Disc pad for hook and loop discs M14 125mm;Disc Pad for hook and loop discs M14 125mm.;Abrasives
3M Marine metal Restored and Polish pulēšanas pasta 500ml;"3M Marine metal Restored and Polish pulē&scaron;anas pasta 500ml.";3M;Abrazīvie materiāli;1328739580---S-200.jpg;"";"";Абразивные материалы;"";"";Abrasives
3M SekureFit SF401AF-EU aizsargbrilles;3M SekureFit SF401AF-EU aizsargbrilles;3M;Individuālie darba aizsardzības līdzekļi;1331051390---marcus.jpg;"";"";Средства индивидуальной защиты;"";"";Personal Safety
Nobeiguma apstrādes cilindrs ar 76mm vārpstu;"<span style=""color:rgb(0, 0, 0); font-family:arial"">Nobeiguma apstrādes cilindrs ar 76mm vārpstu&nbsp;izgatavots no Scotch-Brite materiāla.</span>";ADK;Abrazīvie materiāli;1328799762---6054.jpg;Лепестковые щетки из Scotch-Brite ;"Лепестковые щетки из абразивного&nbsp;материала&nbsp;Scotch-Brite.";Абразивные материалы;Finish Flap Brush;"<p>Finish Flap Brush</p>
";Abrasives
Nobeiguma apstrādes cilindrs ar M14 vītni;"<span style=""color:rgb(0, 0, 0); font-family:arial"">Nobeiguma apstrādes cilindrs ar M14 vītni izgatavots no Scotch-Brite materiāla.</span>";ADK;Abrazīvie materiāli;1328801245---6057.jpg;Лепестковые щетки из абразивного материала Scotch-Brite;"<span style=""color:rgb(0, 0, 0); font-family:arial"">Лепестковые щетки из абразивного&nbsp;материала&nbsp;Scotch-Brite.</span>";Абразивные материалы;Finish Flap Brush;"<span style=""color:rgb(0, 0, 0); font-family:arial"">Finish Flap Brush.</span>";Abrasives
3M 471 Vinila marķēšanas līmlente;"3M 471 Vinila līmlente marķē&scaron;anai. Līmlente ātri un labi pielīp gandrīz pie jebkuras virsmas. Krāsu pigments ir vienmērīgi iestrādāts visā līmlentē, kas nodro&scaron;ina ko&scaron;u krāsu visu līmlentes darbības laiku. Līmlente ir noturīga pret berzi, mitrumu, skābi un sārmiem.<br />
Ideāli piemērorta grīdas marķē&scaron;anai.&nbsp;<br />
Izmērs 50 mm x 33 m x 0.13 mm";3M;Līmes un līmlentes;1350388484---6098.jpg;3M 471Виниловые ленты ;"3M 471Виниловые ленты&nbsp;&nbsp;для разметки полов и сигнальной маркировки.";Ленты и клеи;3M Plastic Film Tape 471;"";Tapes & Adhesives
3M 5702 Vinila augstas izturības marķēšanas līmlente;"<span style=""color:rgb(0, 0, 0); font-family:arial"">3M 5702 Vinila līmlente marķē&scaron;anai. Līmlente ātri un labi pielīp gandrīz pie jebkuras virsmas. Krāsu pigments ir vienmērīgi iestrādāts visā līmlentē, kas nodro&scaron;ina ko&scaron;u krāsu visu līmlentes darbības laiku. Līmlente ir noturīga pret berzi, mitrumu, skābi un sārmiem.<br />
Ideāli piemērorta grīdas marķē&scaron;anai.&nbsp;</span><br />
<span style=""color:rgb(0, 0, 0); font-family:arial"">Izmērs 50 mm x 33 m x 0.14 mm</span>";3M;Līmes un līmlentes;1350388952---6075.jpg;"";"";Ленты и клеи;"";"";Tapes & Adhesives
3M 766i Vinila marķēšanas līmlente;"<span style=""color:rgb(0, 0, 0); font-family:arial"">3M 766i Vinila līmlente marķē&scaron;anai. &nbsp;Krāsa ir uzdrukāta uz līmlentes virsējā slāņa.<br />
Nav ieteicama grīdas marķē&scaron;anai.&nbsp;</span><br />
<span style=""color:rgb(0, 0, 0); font-family:arial"">Izmērs 50 mm x 33 m x 0.125 mm</span>";3M;Līmes un līmlentes;1350389297---aktu padla.jpg;"";"";Ленты и клеи;"";"";Tapes & Adhesives
3M 767i Vinila marķēšanas līmlente;"<span style=""background-color:rgb(255, 255, 255); font-family:arial; font-size:13px"">3M 767i Vinila līmlente marķē&scaron;anai. &nbsp;Krāsa ir uzdrukāta uz līmlentes virsējā slāņa.</span><br />
<span style=""background-color:rgb(255, 255, 255); font-family:arial; font-size:13px"">Izmērs 50 mm x 33 m x 0.125 mm</span>";3M;Līmes un līmlentes;1350389570---6898.jpg;"";"";Ленты и клеи;"";"";Tapes & Adhesives
3M 764i Vinila marķēšanas līmlente;"<span style=""color:rgb(0, 0, 0); font-family:arial"">3M 764i Vinila līmlente marķē&scaron;anai. &nbsp;</span><br />
<span style=""color:rgb(0, 0, 0); font-family:arial"">Izmērs 50 mm x 33 m x 0.125 mm</span>";3M;Līmes un līmlentes;1350389773---6889.jpg;"";"";Ленты и клеи;"";"";Tapes & Adhesives
"3M 5952 VHB Divpusējā līmlente, pulverkrāsotām virsmām";"<span style=""color:rgb(0, 0, 0); font-family:arial"">3M 5952F VHB divpusējā līmlente, melna.&nbsp;</span><br />
<strong>Īpa&scaron;i piemērota pulverkrāsotu virsmu līmē&scaron;anai.</strong><br />
<span style=""color:rgb(0, 0, 0); font-family:arial"">- Cietajam PVC, ABS, akrilam (PMMA), polikarbonātam un c.c. plastmasām.</span><br />
<span style=""color:rgb(0, 0, 0); font-family:arial"">- Tēraudam, nerūsējo&scaron;am tēraudam, alūmīnijam.</span><br />
<span style=""color:rgb(0, 0, 0); font-family:arial"">- Krāsotām un lakotām virsmām, t.sk. ar pulverkrāsas pārklājumu.</span><br />
<span style=""color:rgb(0, 0, 0); font-family:arial"">- Stiklam un keramikai.</span>";3M;Līmes un līmlentes;1350389925---6893.jpg;"";"";Ленты и клеи;"";"";Tapes & Adhesives
3M 967A Cubitron II lapiņu disks;3M 967A Cubitron II lapiņu disks.;3M;Abrazīvie materiāli;1202305621---Roloc disku turētājs.jpg;3M Cubitron II 967A Круг лепестковый торцевой конический ;"<p><span style=""font-size:12px""><span style=""font-family:arial,helvetica,sans-serif"">Высокопроизводительные лепестковые круги 3М 947D предназначены для обработки нержавеющей стали. Минерал 3М Cubitron обеспечивает высокую скорость резания и агрессивность обработки. Шлифовальные присадки снижают температуру в зоне обработки, предотвращая появление прижогов и цветов побежалости.</span></span></p>
";Абразивные материалы;3M Cubitron II Flap Disc  967A;"3M Cubitron II Flap Disc &nbsp;967A&nbsp;<span style=""color:rgb(0, 0, 0)"">contains precision shaped grain for ultra fast cut and long life. Versatile, all purpose polycotton backing works great for common carbon and stainless steel metalworking applications such as weld removal, edge chamfering, and beveling.</span>";Abrasives
Pulēšanas pasta ;"Pulē&scaron;anas pasta &nbsp;piemērota melnā metāla un nerūsējo&scaron;ā tērauda pulē&scaron;anai.";Schmidts Polérmedel AB;Abrazīvie materiāli;1352313050---lakukaracha.jpg;"";"";Абразивные материалы;"";"";Abrasives
"3M VHB grunts 94, 236ml";"3M VHB grunts 94, 236ml&nbsp;<br />
Virsmas enerģijas paugstinātājs VHB līmlentēm.";3M;Līmes un līmlentes;1326278386---9925.jpg;"";"";Ленты и клеи;"";"";Tapes & Adhesives
3M Scotch-Weld Cleaner Spray (Citrus Cleaner);"3M Cleaner Spray (Citrus Cleaner)&nbsp;ir universāls attīrītājs aierosola iepakojumā. Piemērots līmes traipu, tauku un eļlas noņem&scaron;anai no krāsota metāla, nerūsējo&scaron;ā tērauda, alumīnija, keramikas, stikla, porcelāna un dažādām plastmasām. &nbsp;Var lietot krāsojumam un plastmasas pārklājumu attauko&scaron;anai, tos nebojājot. Patīkams citrusa aromāts.";3M;Līmes un līmlentes;1202405982---2128.jpg;"";"&nbsp;";Ленты и клеи;"";"&nbsp;";Tapes & Adhesives
3M 9088 Divpusējā līmlente;"3M 9088 divpusējā &nbsp;akrila līmlente, caurspīdīga, ļoti plāna, UV staru un augtas temperatūras izturīga, līdz +90<span style=""color:rgb(0, 0, 0); font-family:arial"">&nbsp;&ordm;C.</span><br />
Piemērota metāla, stikla, koka, papīra, plastikāta un krāsotu virsmu līmē&scaron;anai.<br />
&nbsp;";3M;Līmes un līmlentes;1353437928---HJOIHDAOIUJ.jpg;"";"";Ленты и клеи;"";"";Tapes & Adhesives
"3M SOLUS S1101SGAFKT-EU aizsargbrilles, causpīdīgas, komplekts";"3M SOLUS S1101SGAFKT-EU aizsargbrilles, komplekts";3M;Individuālie darba aizsardzības līdzekļi;1353443157---neõns.jpg;"";"";Средства индивидуальной защиты;"";"";Personal Safety
"3M SOLUS S1101SGAFKT-EU aizsargbrilles, causpīdīgas, komplekts";"3M SOLUS S1101SGAFKT-EU aizsargbrilles, komplekts";3M;Individuālie darba aizsardzības līdzekļi;1353443157---neõns.jpg;"";"";Средства индивидуальной защиты;"";"";Personal Safety
"3M SOLUS S1101SGAF-EU aizsargbrilles, caurspīdīgas";"SOLUS S1101SGAF-EU aizsargbrilles, caurspīdīgas";3M;Individuālie darba aizsardzības līdzekļi;1360091254---lolosis.jpg;"";"";Средства индивидуальной защиты;"";"";Personal Safety
"3M SOLUS S1103SGAF-EU aizsargbrilles, dzeltenas";"3M SOLUS S1103SGAF-EU aizsargbrilles, dzeltenas";3M;Individuālie darba aizsardzības līdzekļi;1360091533---7777.jpg;"";"";Средства индивидуальной защиты;"";"";Personal Safety
"Šķiedru diski, ceramika";"&Scaron;ķiedru diski, ceramika";Inter Abrasiv;Abrazīvie materiāli;1360092122---fullsize.jpg;"";"";Абразивные материалы;"";"";Abrasives
"Lapiņu disks, ceramika";"Lapiņu disks, ceramika";Inter Abrasiv;Abrazīvie materiāli;1360092325---IMAG0142.jpg;"";"";Абразивные материалы;"";"";Abrasives
3M Pneimatiskā lentes slīpmašīna;"3M Pneimatiskā lentes slīpma&scaron;īna<br />
&nbsp;";3M;Abrazīvie materiāli;1360694980---spray-90-scotchweld-adhesive-spray-13102010164358-1_1.jpg;"";"";Абразивные материалы;"";"";Abrasives
3M 787C šķiedras disks nerūsējošam tēraudam;"3M 787C &scaron;ķiedras disks nerūsējo&scaron;am tēraudam";3M;Abrazīvie materiāli;1360694256---fullsize.jpg;"";"";Абразивные материалы;"";"";Abrasives
3M 782C šķiedras disks melnajam metālam;"3M 782C &scaron;ķiedras disks melnajam metālam";3M;Abrazīvie materiāli;1360694372---3M_S_74_2978_4aaa230b27f36.jpg;"";"";Абразивные материалы;"";"";Abrasives
3M Pneimatiskā Roloc disku slīpmašīna;"3M Pneimatiskā Roloc disku slīpma&scaron;īna<br />
&nbsp;";3M;Instrumenti un iekārtas;1360694660---3m-spray-75-tarraliima.jpg;"";"";Инструмент и оборудование;"";"";Tools and equipment
