<?xml version="1.0" encoding="UTF-8"?>
<svg width="16px" height="16px" viewBox="0 0 16 16" version="1.1" xmlns="http://www.w3.org/2000/svg" xmlns:xlink="http://www.w3.org/1999/xlink">
    <!-- Generator: Sketch 51.3 (57544) - http://www.bohemiancoding.com/sketch -->
    <title>adk-icon-search</title>
    <desc>Created with Sketch.</desc>
    <defs></defs>
    <g id="tālāk" stroke="none" stroke-width="1" fill="none" fill-rule="evenodd">
        <g id="ADK-dizains-1" transform="translate(-1209.000000, -33.000000)" fill="#000000" fill-rule="nonzero">
            <g id="ADK-header" transform="translate(100.000000, 0.000000)">
                <g id="search" transform="translate(1109.000000, 33.000000)">
                    <path d="M14.982792,14.1514601 L11.2850354,10.3056078 C12.2357936,9.17538923 12.7567196,7.753343 12.7567196,6.27293123 C12.7567196,2.8140915 9.9426281,0 6.48378837,0 C3.02494864,0 0.210857143,2.8140915 0.210857143,6.27293123 C0.210857143,9.73177096 3.02494864,12.5458625 6.48378837,12.5458625 C7.78228513,12.5458625 9.019689,12.1542134 10.0776325,11.4107346 L13.8034809,15.2857697 C13.9592132,15.4475023 14.1686746,15.536687 14.3931364,15.536687 C14.6055979,15.536687 14.8071499,15.4556843 14.9601549,15.3084068 C15.2852564,14.9955785 15.2956203,14.4768343 14.982792,14.1514601 Z M6.48378837,1.63641684 C9.04041695,1.63641684 11.1203028,3.71630265 11.1203028,6.27293123 C11.1203028,8.82955981 9.04041695,10.9094456 6.48378837,10.9094456 C3.92715979,10.9094456 1.84727398,8.82955981 1.84727398,6.27293123 C1.84727398,3.71630265 3.92715979,1.63641684 6.48378837,1.63641684 Z" id="adk-icon-search"></path>
                </g>
            </g>
        </g>
    </g>
</svg>