<?xml version="1.0" encoding="UTF-8"?>
<svg width="13px" height="10px" viewBox="0 0 13 10" version="1.1" xmlns="http://www.w3.org/2000/svg" xmlns:xlink="http://www.w3.org/1999/xlink">
    <!-- Generator: Sketch 51.3 (57544) - http://www.bohemiancoding.com/sketch -->
    <title>burger</title>
    <desc>Created with Sketch.</desc>
    <defs></defs>
    <g id="tālāk" stroke="none" stroke-width="1" fill="none" fill-rule="evenodd">
        <g id="ADK-dizains-mobile" transform="translate(-330.000000, -34.000000)" fill="#000000" fill-rule="nonzero">
            <g id="ADK-header-mobile">
                <path d="M330,34 L343,34 L343,36 L330,36 L330,34 Z M330,38 L343,38 L343,40 L330,40 L330,38 Z M330,42 L343,42 L343,44 L330,44 L330,42 Z" id="burger"></path>
            </g>
        </g>
    </g>
</svg>