<?xml version="1.0" encoding="UTF-8"?>
<svg width="17px" height="16px" viewBox="0 0 17 16" version="1.1" xmlns="http://www.w3.org/2000/svg" xmlns:xlink="http://www.w3.org/1999/xlink">
    <!-- Generator: Sketch 51.3 (57544) - http://www.bohemiancoding.com/sketch -->
    <title>Info Icon</title>
    <desc>Created with Sketch.</desc>
    <defs></defs>
    <g id="tālāk" stroke="none" stroke-width="1" fill="none" fill-rule="evenodd">
        <g id="ADK-dizains-produktu-saraksta-skats-2" transform="translate(-348.000000, -759.000000)" fill="#E1E1E1">
            <g id="Sidebar-filtrs" transform="translate(100.000000, 393.000000)">
                <g id="4" transform="translate(0.000000, 198.000000)">
                    <g id="Checkboxi" transform="translate(18.770163, 75.000000)">
                        <path d="M239.619,105.006 L236.38,105.006 C236.167,105.006 235.995,104.805 235.995,104.558 C235.995,104.311 236.167,104.11 236.38,104.11 L237,104 L237,101 L236.38,100.884 C236.167,100.884 235.995,100.683 235.995,100.436 C235.995,100.189 236.167,99.988 236.38,99.988 L238.894,99.988 C238.971,99.988 238.996,99.956 239.007,99.93 C239.004,99.945 239,99.959 239,100 L239,104 L239.619,104.11 C239.832,104.11 240.005,104.311 240.005,104.558 C240.005,104.805 239.832,105.006 239.619,105.006 L239.619,105.006 Z M237,97 L237.98,97 C237.987,97 237.993,96.996 238,96.996 C238.007,96.996 238.013,97 238.02,97 L239,97 L239,97.94 C239.001,97.962 239.012,97.98 239.012,98.001 C239.012,98.023 239.001,98.041 239,98.062 L239,99 L238.033,99 C238.021,99.001 238.011,99.007 238,99.007 C237.988,99.007 237.978,99.001 237.967,99 L237,99 L237,98.061 C236.998,98.04 236.987,98.023 236.987,98.001 C236.987,97.98 236.998,97.962 237,97.941 L237,97 Z M238,93 C233.581,93 230,96.582 230,101 C230,105.418 233.581,109 238,109 C242.418,109 246,105.418 246,101 C246,96.582 242.418,93 238,93 L238,93 Z" id="Info-Icon"></path>
                    </g>
                </g>
            </g>
        </g>
    </g>
</svg>