<?xml version="1.0" encoding="UTF-8"?>
<svg width="30px" height="30px" viewBox="0 0 30 30" version="1.1" xmlns="http://www.w3.org/2000/svg" xmlns:xlink="http://www.w3.org/1999/xlink">
    <!-- Generator: Sketch 51.3 (57544) - http://www.bohemiancoding.com/sketch -->
    <title>linkedin-logo-button</title>
    <desc>Created with Sketch.</desc>
    <defs></defs>
    <g id="tālāk" stroke="none" stroke-width="1" fill="none" fill-rule="evenodd">
        <g id="ADK-dizains-1" transform="translate(-1140.000000, -2912.000000)" fill="#ADA9A6" fill-rule="nonzero">
            <g id="ADK-footer" transform="translate(0.000000, 2572.000000)">
                <g id="footer-top">
                    <g id="5" transform="translate(1052.000000, 302.000000)">
                        <g id="social" transform="translate(0.000000, 38.000000)">
                            <g id="linkedin-logo-button" transform="translate(88.636364, 0.000000)">
                                <path d="M17.3431818,12.5851818 C16.0875,12.5851818 15.5267273,13.2753636 15.2129545,13.7599091 L15.2129545,12.753 L12.8481364,12.753 C12.8788636,13.4195455 12.8481364,19.8681364 12.8481364,19.8681364 L15.2129545,19.8681364 L15.2129545,15.8930909 C15.2129545,15.6809545 15.2265455,15.4676364 15.2903636,15.3157727 C15.4617273,14.8903182 15.8505455,14.4500909 16.5040909,14.4500909 C17.3597273,14.4500909 17.7018636,15.1024545 17.7018636,16.0597273 L17.7018636,19.8663636 L20.0666818,19.8663636 L20.0672727,19.8663636 L20.0672727,15.7861364 C20.0660909,13.6021364 18.8990455,12.5851818 17.3431818,12.5851818 Z M15.2111818,13.7847273 L15.1964091,13.7847273 C15.2011364,13.7764545 15.2082273,13.7687727 15.2111818,13.7605 L15.2111818,13.7847273 Z" id="Shape"></path>
                                <rect id="Rectangle-path" x="9.17268182" y="12.753" width="2.36481818" height="7.11513636"></rect>
                                <path d="M14.6699091,0 C6.58095455,0 0,6.58095455 0,14.6699091 C0,22.7582727 6.58095455,29.3398182 14.6699091,29.3398182 C22.7582727,29.3398182 29.3398182,22.7582727 29.3398182,14.6699091 C29.3398182,6.58095455 22.7594545,0 14.6699091,0 Z M22.4492273,21.3052273 C22.4492273,21.9292273 21.9315909,22.4338636 21.2916364,22.4338636 L7.94831818,22.4338636 C7.31013636,22.4338636 6.79190909,21.9292273 6.79190909,21.3052273 L6.79190909,7.8065 C6.79190909,7.18309091 7.31013636,6.67786364 7.94831818,6.67786364 L21.2916364,6.67786364 C21.931,6.67786364 22.4492273,7.18368182 22.4492273,7.8065 L22.4492273,21.3052273 Z" id="Shape"></path>
                                <path d="M10.3710455,9.32277273 C9.56268182,9.32277273 9.03322727,9.85340909 9.03322727,10.5518636 C9.03322727,11.2343636 9.54672727,11.7809545 10.3397273,11.7809545 L10.3550909,11.7809545 C11.18,11.7809545 11.6935,11.2343636 11.6935,10.5518636 C11.6775455,9.854 11.1805909,9.32277273 10.3710455,9.32277273 Z" id="Shape"></path>
                            </g>
                        </g>
                    </g>
                </g>
            </g>
        </g>
    </g>
</svg>